EESchema Schematic File Version 4
EELAYER 30 0
EELAYER END
$Descr A3 16535 11693
encoding utf-8
Sheet 1 1
Title "MK14 REPLICA"
Date "2018-04-13"
Rev "1.2"
Comp "SCIENCE OF CAMBRIDGE"
Comment1 "Replica by Slothie from v4 schematic"
Comment2 "Modification to allow use of IM65X61/HM6561 memory"
Comment3 "Status: Draft (untested)"
Comment4 ""
$EndDescr
$Comp
L mk14-rescue:74S571 U2
U 1 1 5ACF589C
P 5200 1775
F 0 "U2" H 5200 2000 60  0000 C CNN
F 1 "74S571" H 5200 1875 60  0000 C CNN
F 2 "Housings_DIP:DIP-16_W7.62mm" H 5200 1875 60  0001 C CNN
F 3 "" H 5200 1875 60  0000 C CNN
	1    5200 1775
	1    0    0    -1  
$EndComp
$Comp
L mk14-rescue:74S571 U3
U 1 1 5ACF5925
P 5200 3125
F 0 "U3" H 5200 3350 60  0000 C CNN
F 1 "74S571" H 5200 3225 60  0000 C CNN
F 2 "Housings_DIP:DIP-16_W7.62mm" H 5200 3225 60  0001 C CNN
F 3 "" H 5200 3225 60  0000 C CNN
	1    5200 3125
	1    0    0    -1  
$EndComp
$Comp
L mk14-rescue:MM2111 U4
U 1 1 5ACF5985
P 5200 4500
F 0 "U4" H 5200 4725 60  0000 C CNN
F 1 "MM2111" H 5200 4600 60  0000 C CNN
F 2 "Housings_DIP:DIP-18_W7.62mm" H 5200 4600 60  0001 C CNN
F 3 "" H 5200 4600 60  0000 C CNN
	1    5200 4500
	1    0    0    -1  
$EndComp
$Comp
L mk14-rescue:MM2111 U5
U 1 1 5ACF5A1C
P 5200 5875
F 0 "U5" H 5200 6100 60  0000 C CNN
F 1 "MM2111" H 5200 5975 60  0000 C CNN
F 2 "Housings_DIP:DIP-18_W7.62mm" H 5200 5975 60  0001 C CNN
F 3 "" H 5200 5975 60  0000 C CNN
	1    5200 5875
	1    0    0    -1  
$EndComp
$Comp
L mk14-rescue:MM2111 U6
U 1 1 5ACF5B77
P 5200 7250
F 0 "U6" H 5200 7475 60  0000 C CNN
F 1 "MM2111" H 5200 7350 60  0000 C CNN
F 2 "Housings_DIP:DIP-18_W7.62mm" H 5200 7350 60  0001 C CNN
F 3 "" H 5200 7350 60  0000 C CNN
	1    5200 7250
	1    0    0    -1  
$EndComp
$Comp
L mk14-rescue:MM2111 U7
U 1 1 5ACF5BF1
P 5200 8625
F 0 "U7" H 5200 8850 60  0000 C CNN
F 1 "MM2111" H 5200 8725 60  0000 C CNN
F 2 "Housings_DIP:DIP-18_W7.62mm" H 5200 8725 60  0001 C CNN
F 3 "" H 5200 8725 60  0000 C CNN
	1    5200 8625
	1    0    0    -1  
$EndComp
$Comp
L mk14-rescue:INS8154 U8
U 1 1 5ACF6658
P 9450 2425
F 0 "U8" H 9450 2450 60  0000 C CNN
F 1 "INS8154" H 9450 2325 60  0000 C CNN
F 2 "Housings_DIP:DIP-40_W15.24mm" H 9450 2325 60  0001 C CNN
F 3 "" H 9450 2325 60  0000 C CNN
	1    9450 2425
	1    0    0    -1  
$EndComp
$Comp
L mk14-rescue:74LS157 U10
U 1 1 5ACF6805
P 9425 6450
F 0 "U10" H 9475 6600 50  0000 C CNN
F 1 "74LS157" H 9475 6300 50  0000 C CNN
F 2 "Housings_DIP:DIP-16_W7.62mm" H 9425 6450 50  0001 C CNN
F 3 "" H 9425 6450 50  0000 C CNN
	1    9425 6450
	1    0    0    -1  
$EndComp
$Comp
L mk14-rescue:74LS365 U11
U 1 1 5ACF6CBC
P 8725 7700
F 0 "U11" H 8725 7700 50  0000 C CNN
F 1 "74LS365" H 8775 7500 50  0000 C CNN
F 2 "Housings_DIP:DIP-16_W7.62mm" H 8725 7700 50  0001 C CNN
F 3 "" H 8725 7700 50  0000 C CNN
	1    8725 7700
	-1   0    0    -1  
$EndComp
$Comp
L mk14-rescue:74LS173 U12
U 1 1 5ACF6D11
P 8725 9025
F 0 "U12" H 8825 9125 50  0000 C CNN
F 1 "74LS173" H 8825 8975 50  0000 C CNN
F 2 "Housings_DIP:DIP-16_W7.62mm" H 8725 9025 50  0001 C CNN
F 3 "" H 8725 9025 50  0000 C CNN
	1    8725 9025
	1    0    0    -1  
$EndComp
$Comp
L mk14-rescue:74LS45 U13
U 1 1 5ACF6FF0
P 10475 9450
F 0 "U13" H 10475 9450 50  0000 C CNN
F 1 "7445" H 10575 9150 50  0000 C CNN
F 2 "Housings_DIP:DIP-16_W7.62mm" H 10475 9450 50  0001 C CNN
F 3 "" H 10475 9450 50  0000 C CNN
	1    10475 9450
	1    0    0    -1  
$EndComp
$Comp
L mk14-rescue:74LS08 U14
U 1 1 5ACF7170
P 11350 4075
F 0 "U14" H 11350 4125 50  0000 C CNN
F 1 "7408" H 11350 4025 50  0000 C CNN
F 2 "Housings_DIP:DIP-14_W7.62mm" H 11350 4075 50  0001 C CNN
F 3 "" H 11350 4075 50  0000 C CNN
	1    11350 4075
	1    0    0    -1  
$EndComp
$Comp
L mk14-rescue:74LS08 U14
U 2 1 5ACF72C3
P 11350 4525
F 0 "U14" H 11350 4575 50  0000 C CNN
F 1 "7408" H 11350 4475 50  0000 C CNN
F 2 "Housings_DIP:DIP-14_W7.62mm" H 11350 4525 50  0001 C CNN
F 3 "" H 11350 4525 50  0000 C CNN
	2    11350 4525
	1    0    0    -1  
$EndComp
$Comp
L mk14-rescue:74LS08 U14
U 3 1 5ACF7300
P 11350 4975
F 0 "U14" H 11350 5025 50  0000 C CNN
F 1 "7408" H 11350 4925 50  0000 C CNN
F 2 "Housings_DIP:DIP-14_W7.62mm" H 11350 4975 50  0001 C CNN
F 3 "" H 11350 4975 50  0000 C CNN
	3    11350 4975
	1    0    0    -1  
$EndComp
$Comp
L mk14-rescue:74LS08 U14
U 4 1 5ACF73E3
P 11350 5425
F 0 "U14" H 11350 5475 50  0000 C CNN
F 1 "7408" H 11350 5375 50  0000 C CNN
F 2 "Housings_DIP:DIP-14_W7.62mm" H 11350 5425 50  0001 C CNN
F 3 "" H 11350 5425 50  0000 C CNN
	4    11350 5425
	1    0    0    -1  
$EndComp
$Comp
L mk14-rescue:74LS08 U15
U 1 1 5ACF7E87
P 11350 5875
F 0 "U15" H 11350 5925 50  0000 C CNN
F 1 "7408" H 11350 5825 50  0000 C CNN
F 2 "Housings_DIP:DIP-14_W7.62mm" H 11350 5875 50  0001 C CNN
F 3 "" H 11350 5875 50  0000 C CNN
	1    11350 5875
	1    0    0    -1  
$EndComp
$Comp
L mk14-rescue:74LS08 U16
U 1 1 5ACF8101
P 6925 2850
F 0 "U16" H 6925 2900 50  0000 C CNN
F 1 "74LS08" H 6925 2800 50  0000 C CNN
F 2 "Housings_DIP:DIP-14_W7.62mm" H 6925 2850 50  0001 C CNN
F 3 "" H 6925 2850 50  0000 C CNN
	1    6925 2850
	1    0    0    -1  
$EndComp
$Comp
L mk14-rescue:74LS08 U16
U 2 1 5ACF8158
P 7175 6250
F 0 "U16" H 7175 6300 50  0000 C CNN
F 1 "74LS08" H 7175 6200 50  0000 C CNN
F 2 "Housings_DIP:DIP-14_W7.62mm" H 7175 6250 50  0001 C CNN
F 3 "" H 7175 6250 50  0000 C CNN
	2    7175 6250
	1    0    0    -1  
$EndComp
$Comp
L mk14-rescue:74LS08 U16
U 3 1 5ACF819D
P 1750 1500
F 0 "U16" H 1750 1550 50  0000 C CNN
F 1 "74LS08" H 1750 1450 50  0000 C CNN
F 2 "Housings_DIP:DIP-14_W7.62mm" H 1750 1500 50  0001 C CNN
F 3 "" H 1750 1500 50  0000 C CNN
	3    1750 1500
	-1   0    0    1   
$EndComp
$Comp
L mk14-rescue:74LS08 U16
U 4 1 5ACF8254
P 7175 7800
F 0 "U16" H 7175 7850 50  0000 C CNN
F 1 "74LS08" H 7175 7750 50  0000 C CNN
F 2 "Housings_DIP:DIP-14_W7.62mm" H 7175 7800 50  0001 C CNN
F 3 "" H 7175 7800 50  0000 C CNN
	4    7175 7800
	1    0    0    -1  
$EndComp
$Comp
L mk14-rescue:74LS00 U17
U 1 1 5ACF8840
P 7175 3600
F 0 "U17" H 7175 3650 50  0000 C CNN
F 1 "74LS00" H 7175 3500 50  0000 C CNN
F 2 "Housings_DIP:DIP-14_W7.62mm" H 7175 3600 50  0001 C CNN
F 3 "" H 7175 3600 50  0000 C CNN
	1    7175 3600
	-1   0    0    1   
$EndComp
$Comp
L mk14-rescue:74LS00 U17
U 2 1 5ACF88B7
P 7175 4800
F 0 "U17" H 7175 4850 50  0000 C CNN
F 1 "74LS00" H 7175 4700 50  0000 C CNN
F 2 "Housings_DIP:DIP-14_W7.62mm" H 7175 4800 50  0001 C CNN
F 3 "" H 7175 4800 50  0000 C CNN
	2    7175 4800
	1    0    0    -1  
$EndComp
$Comp
L mk14-rescue:74LS00 U17
U 3 1 5ACF8902
P 7300 9375
F 0 "U17" H 7300 9425 50  0000 C CNN
F 1 "74LS00" H 7300 9275 50  0000 C CNN
F 2 "Housings_DIP:DIP-14_W7.62mm" H 7300 9375 50  0001 C CNN
F 3 "" H 7300 9375 50  0000 C CNN
	3    7300 9375
	1    0    0    -1  
$EndComp
$Comp
L mk14-rescue:74LS00 U17
U 4 1 5ACF897F
P 2350 8500
F 0 "U17" H 2350 8550 50  0000 C CNN
F 1 "74LS00" H 2350 8400 50  0000 C CNN
F 2 "Housings_DIP:DIP-14_W7.62mm" H 2350 8500 50  0001 C CNN
F 3 "" H 2350 8500 50  0000 C CNN
	4    2350 8500
	1    0    0    -1  
$EndComp
$Comp
L mk14-rescue:74LS04 U18
U 1 1 5ACF9134
P 7125 4175
F 0 "U18" H 7320 4290 50  0000 C CNN
F 1 "74LS04" H 7315 4050 50  0000 C CNN
F 2 "Housings_DIP:DIP-14_W7.62mm" H 7125 4175 50  0001 C CNN
F 3 "" H 7125 4175 50  0000 C CNN
	1    7125 4175
	1    0    0    -1  
$EndComp
$Comp
L mk14-rescue:74LS04 U18
U 2 1 5ACF91A3
P 7150 5375
F 0 "U18" H 7345 5490 50  0000 C CNN
F 1 "74LS04" H 7340 5250 50  0000 C CNN
F 2 "Housings_DIP:DIP-14_W7.62mm" H 7150 5375 50  0001 C CNN
F 3 "" H 7150 5375 50  0000 C CNN
	2    7150 5375
	1    0    0    -1  
$EndComp
$Comp
L mk14-rescue:74LS04 U18
U 3 1 5ACF9210
P 7175 6750
F 0 "U18" H 7370 6865 50  0000 C CNN
F 1 "74LS04" H 7365 6625 50  0000 C CNN
F 2 "Housings_DIP:DIP-14_W7.62mm" H 7175 6750 50  0001 C CNN
F 3 "" H 7175 6750 50  0000 C CNN
	3    7175 6750
	1    0    0    -1  
$EndComp
$Comp
L mk14-rescue:74LS04 U18
U 4 1 5ACF9277
P 7200 5825
F 0 "U18" H 7395 5940 50  0000 C CNN
F 1 "74LS04" H 7390 5700 50  0000 C CNN
F 2 "Housings_DIP:DIP-14_W7.62mm" H 7200 5825 50  0001 C CNN
F 3 "" H 7200 5825 50  0000 C CNN
	4    7200 5825
	-1   0    0    1   
$EndComp
$Comp
L mk14-rescue:74LS04 U18
U 5 1 5ACF92D0
P 7175 2225
F 0 "U18" H 7370 2340 50  0000 C CNN
F 1 "74LS04" H 7365 2100 50  0000 C CNN
F 2 "Housings_DIP:DIP-14_W7.62mm" H 7175 2225 50  0001 C CNN
F 3 "" H 7175 2225 50  0000 C CNN
	5    7175 2225
	1    0    0    1   
$EndComp
$Comp
L mk14-rescue:74LS04 U18
U 6 1 5ACF9353
P 7025 1175
F 0 "U18" H 7220 1290 50  0000 C CNN
F 1 "74LS04" H 7215 1050 50  0000 C CNN
F 2 "Housings_DIP:DIP-14_W7.62mm" H 7025 1175 50  0001 C CNN
F 3 "" H 7025 1175 50  0000 C CNN
	6    7025 1175
	1    0    0    -1  
$EndComp
$Comp
L mk14-rescue:LM7805CT U19
U 1 1 5ACF93E6
P 2525 10500
F 0 "U19" H 2325 10700 50  0000 C CNN
F 1 "LM7805CT" H 2525 10700 50  0000 L CNN
F 2 "TO_SOT_Packages_THT:TO-220_Neutral123_Horizontal_LargePads" H 2525 10600 50  0001 C CIN
F 3 "" H 2525 10500 50  0000 C CNN
	1    2525 10500
	1    0    0    -1  
$EndComp
Entry Wire Line
	3575 2725 3675 2625
Entry Wire Line
	3575 2825 3675 2725
Entry Wire Line
	3575 2925 3675 2825
Entry Wire Line
	3575 3025 3675 2925
Entry Wire Line
	3575 3125 3675 3025
Entry Wire Line
	3575 3225 3675 3125
Entry Wire Line
	3575 3325 3675 3225
Entry Wire Line
	3575 3425 3675 3325
Entry Wire Line
	3575 3525 3675 3425
Entry Wire Line
	3575 3625 3675 3525
Entry Wire Line
	3575 3725 3675 3625
Entry Wire Line
	3575 3825 3675 3725
Text Label 3400 2725 0    60   ~ 0
A0
Text Label 3400 2825 0    60   ~ 0
A1
Text Label 3400 2925 0    60   ~ 0
A2
Text Label 3400 3025 0    60   ~ 0
A3
Text Label 3400 3125 0    60   ~ 0
A4
Text Label 3400 3225 0    60   ~ 0
A5
Text Label 3400 3325 0    60   ~ 0
A6
Text Label 3400 3425 0    60   ~ 0
A7
Text Label 3400 3525 0    60   ~ 0
A8
Text Label 3400 3625 0    60   ~ 0
A9
Text Label 3400 3725 0    60   ~ 0
A10
Text Label 3400 3825 0    60   ~ 0
A11
Text Label 5775 1975 0    60   ~ 0
A0
Text Label 5775 1875 0    60   ~ 0
A1
Text Label 5775 1775 0    60   ~ 0
A2
Text Label 5775 1675 0    60   ~ 0
A3
Text Label 5775 1575 0    60   ~ 0
A4
Text Label 5775 1475 0    60   ~ 0
A5
Text Label 5775 1375 0    60   ~ 0
A6
Text Label 5775 1275 0    60   ~ 0
A7
Text Label 5775 1175 0    60   ~ 0
A8
Entry Wire Line
	5950 1175 6050 1075
Entry Wire Line
	5950 1275 6050 1175
Entry Wire Line
	5950 1375 6050 1275
Entry Wire Line
	5950 1475 6050 1375
Entry Wire Line
	5950 1575 6050 1475
Entry Wire Line
	5950 1675 6050 1575
Entry Wire Line
	5950 1775 6050 1675
Entry Wire Line
	5950 1875 6050 1775
Entry Wire Line
	5950 1975 6050 1875
Text Label 5775 3325 0    60   ~ 0
A0
Text Label 5775 3225 0    60   ~ 0
A1
Text Label 5775 3125 0    60   ~ 0
A2
Text Label 5775 3025 0    60   ~ 0
A3
Text Label 5775 2925 0    60   ~ 0
A4
Text Label 5775 2825 0    60   ~ 0
A5
Text Label 5775 2725 0    60   ~ 0
A6
Text Label 5775 2625 0    60   ~ 0
A7
Text Label 5775 2525 0    60   ~ 0
A8
Entry Wire Line
	5950 2525 6050 2425
Entry Wire Line
	5950 2625 6050 2525
Entry Wire Line
	5950 2725 6050 2625
Entry Wire Line
	5950 2825 6050 2725
Entry Wire Line
	5950 2925 6050 2825
Entry Wire Line
	5950 3025 6050 2925
Entry Wire Line
	5950 3125 6050 3025
Entry Wire Line
	5950 3225 6050 3125
Entry Wire Line
	5950 3325 6050 3225
Text Label 5775 4100 0    60   ~ 0
A0
Text Label 5775 4000 0    60   ~ 0
A1
Text Label 5775 3900 0    60   ~ 0
A2
Text Label 5775 4600 0    60   ~ 0
A3
Text Label 5775 4500 0    60   ~ 0
A4
Text Label 5775 4400 0    60   ~ 0
A5
Text Label 5775 4300 0    60   ~ 0
A6
Text Label 5775 4200 0    60   ~ 0
A7
Entry Wire Line
	5950 3900 6050 3800
Entry Wire Line
	5950 4000 6050 3900
Entry Wire Line
	5950 4100 6050 4000
Entry Wire Line
	5950 4200 6050 4100
Entry Wire Line
	5950 4300 6050 4200
Entry Wire Line
	5950 4400 6050 4300
Entry Wire Line
	5950 4500 6050 4400
Entry Wire Line
	5950 4600 6050 4500
Text Label 5775 5475 0    60   ~ 0
A0
Text Label 5775 5375 0    60   ~ 0
A1
Text Label 5775 5275 0    60   ~ 0
A2
Text Label 5775 5975 0    60   ~ 0
A3
Text Label 5775 5875 0    60   ~ 0
A4
Text Label 5775 5775 0    60   ~ 0
A5
Text Label 5775 5675 0    60   ~ 0
A6
Text Label 5775 5575 0    60   ~ 0
A7
Entry Wire Line
	5950 5275 6050 5175
Entry Wire Line
	5950 5375 6050 5275
Entry Wire Line
	5950 5475 6050 5375
Entry Wire Line
	5950 5575 6050 5475
Entry Wire Line
	5950 5675 6050 5575
Entry Wire Line
	5950 5775 6050 5675
Entry Wire Line
	5950 5875 6050 5775
Entry Wire Line
	5950 5975 6050 5875
Text Label 5775 6850 0    60   ~ 0
A0
Text Label 5775 6750 0    60   ~ 0
A1
Text Label 5775 6650 0    60   ~ 0
A2
Text Label 5775 7350 0    60   ~ 0
A3
Text Label 5775 7250 0    60   ~ 0
A4
Text Label 5775 7150 0    60   ~ 0
A5
Text Label 5775 7050 0    60   ~ 0
A6
Text Label 5775 6950 0    60   ~ 0
A7
Entry Wire Line
	5950 6650 6050 6550
Entry Wire Line
	5950 6750 6050 6650
Entry Wire Line
	5950 6850 6050 6750
Entry Wire Line
	5950 6950 6050 6850
Entry Wire Line
	5950 7050 6050 6950
Entry Wire Line
	5950 7150 6050 7050
Entry Wire Line
	5950 7250 6050 7150
Entry Wire Line
	5950 7350 6050 7250
Text Label 5775 8225 0    60   ~ 0
A0
Text Label 5775 8125 0    60   ~ 0
A1
Text Label 5775 8025 0    60   ~ 0
A2
Text Label 5775 8725 0    60   ~ 0
A3
Text Label 5775 8625 0    60   ~ 0
A4
Text Label 5775 8525 0    60   ~ 0
A5
Text Label 5775 8425 0    60   ~ 0
A6
Text Label 5775 8325 0    60   ~ 0
A7
Entry Wire Line
	5950 8025 6050 7925
Entry Wire Line
	5950 8125 6050 8025
Entry Wire Line
	5950 8225 6050 8125
Entry Wire Line
	5950 8325 6050 8225
Entry Wire Line
	5950 8425 6050 8325
Entry Wire Line
	5950 8525 6050 8425
Entry Wire Line
	5950 8625 6050 8525
Entry Wire Line
	5950 8725 6050 8625
Text Label 5775 8975 0    60   ~ 0
A10
Entry Wire Line
	5950 8975 6050 8875
Text Label 5775 7600 0    60   ~ 0
A10
Entry Wire Line
	5950 7600 6050 7500
Text Label 3425 4025 0    60   ~ 0
D0
Text Label 3425 4125 0    60   ~ 0
D1
Text Label 3425 4225 0    60   ~ 0
D2
Text Label 3425 4325 0    60   ~ 0
D3
Text Label 3425 4425 0    60   ~ 0
D4
Text Label 3425 4525 0    60   ~ 0
D5
Text Label 3425 4625 0    60   ~ 0
D6
Text Label 3425 4725 0    60   ~ 0
D7
Entry Wire Line
	4250 4025 4350 3925
Entry Wire Line
	4250 4125 4350 4025
Entry Wire Line
	4250 4225 4350 4125
Entry Wire Line
	4250 4325 4350 4225
Entry Wire Line
	4250 4425 4350 4325
Entry Wire Line
	4250 4525 4350 4425
Entry Wire Line
	4250 4625 4350 4525
Entry Wire Line
	4250 4725 4350 4625
Text Label 4500 1625 0    60   ~ 0
D0
Text Label 4500 1725 0    60   ~ 0
D1
Text Label 4500 1825 0    60   ~ 0
D2
Text Label 4500 1925 0    60   ~ 0
D3
Entry Wire Line
	4350 1525 4450 1625
Entry Wire Line
	4350 1625 4450 1725
Entry Wire Line
	4350 1725 4450 1825
Entry Wire Line
	4350 1825 4450 1925
Entry Wire Line
	4350 2875 4450 2975
Entry Wire Line
	4350 2975 4450 3075
Entry Wire Line
	4350 3075 4450 3175
Entry Wire Line
	4350 3175 4450 3275
Text Label 4500 2975 0    60   ~ 0
D4
Text Label 4500 3075 0    60   ~ 0
D5
Text Label 4500 3175 0    60   ~ 0
D6
Text Label 4500 3275 0    60   ~ 0
D7
Text Label 4500 4500 0    60   ~ 0
D0
Text Label 4500 4400 0    60   ~ 0
D1
Text Label 4500 4300 0    60   ~ 0
D2
Text Label 4500 4200 0    60   ~ 0
D3
Entry Wire Line
	4350 4100 4450 4200
Entry Wire Line
	4350 4200 4450 4300
Entry Wire Line
	4350 4300 4450 4400
Entry Wire Line
	4350 4400 4450 4500
Text Label 4500 7250 0    60   ~ 0
D0
Text Label 4500 7150 0    60   ~ 0
D1
Text Label 4500 7050 0    60   ~ 0
D2
Text Label 4500 6950 0    60   ~ 0
D3
Entry Wire Line
	4350 6850 4450 6950
Entry Wire Line
	4350 6950 4450 7050
Entry Wire Line
	4350 7050 4450 7150
Entry Wire Line
	4350 7150 4450 7250
Entry Wire Line
	4350 5475 4450 5575
Entry Wire Line
	4350 5575 4450 5675
Entry Wire Line
	4350 5675 4450 5775
Entry Wire Line
	4350 5775 4450 5875
Text Label 4500 5875 0    60   ~ 0
D4
Text Label 4500 5775 0    60   ~ 0
D5
Text Label 4500 5675 0    60   ~ 0
D6
Text Label 4500 5575 0    60   ~ 0
D7
Entry Wire Line
	4350 8225 4450 8325
Entry Wire Line
	4350 8325 4450 8425
Entry Wire Line
	4350 8425 4450 8525
Entry Wire Line
	4350 8525 4450 8625
Text Label 4500 8625 0    60   ~ 0
D4
Text Label 4500 8525 0    60   ~ 0
D5
Text Label 4500 8425 0    60   ~ 0
D6
Text Label 4500 8325 0    60   ~ 0
D7
$Comp
L mk14-rescue:R_Small R12
U 1 1 5AD00AB7
P 3800 3875
F 0 "R12" H 3750 4025 39  0001 L CNN
F 1 "1K2" V 3800 3825 39  0000 L CNN
F 2 "Resistors_ThroughHole:Resistor_Vertical_RM5mm" H 3800 3875 50  0001 C CNN
F 3 "" H 3800 3875 50  0000 C CNN
	1    3800 3875
	-1   0    0    1   
$EndComp
$Comp
L mk14-rescue:R_Small R13
U 1 1 5AD010E4
P 3900 3875
F 0 "R13" H 3850 4025 39  0001 L CNN
F 1 "1K2" V 3900 3825 39  0000 L CNN
F 2 "Resistors_ThroughHole:Resistor_Vertical_RM5mm" H 3900 3875 50  0001 C CNN
F 3 "" H 3900 3875 50  0000 C CNN
	1    3900 3875
	-1   0    0    1   
$EndComp
$Comp
L mk14-rescue:R_Small R14
U 1 1 5AD0116E
P 4000 3875
F 0 "R14" H 3950 4025 39  0001 L CNN
F 1 "1K2" V 4000 3825 39  0000 L CNN
F 2 "Resistors_ThroughHole:Resistor_Vertical_RM5mm" H 4000 3875 50  0001 C CNN
F 3 "" H 4000 3875 50  0000 C CNN
	1    4000 3875
	-1   0    0    1   
$EndComp
$Comp
L mk14-rescue:R_Small R15
U 1 1 5AD011F7
P 4100 3875
F 0 "R15" H 4050 4025 39  0001 L CNN
F 1 "1K2" V 4100 3825 39  0000 L CNN
F 2 "Resistors_ThroughHole:Resistor_Vertical_RM5mm" H 4100 3875 50  0001 C CNN
F 3 "" H 4100 3875 50  0000 C CNN
	1    4100 3875
	-1   0    0    1   
$EndComp
$Comp
L mk14-rescue:VCC #PWR01
U 1 1 5AD01505
P 4200 3775
F 0 "#PWR01" H 4200 3625 50  0001 C CNN
F 1 "VCC" H 4200 3925 50  0000 C CNN
F 2 "" H 4200 3775 50  0000 C CNN
F 3 "" H 4200 3775 50  0000 C CNN
	1    4200 3775
	1    0    0    -1  
$EndComp
Text Notes 3800 3750 0    60   ~ 0
R12..15
Entry Wire Line
	6050 2650 6150 2750
Text Label 6275 2750 0    60   ~ 0
A8
Entry Wire Line
	6050 2850 6150 2950
Text Label 6250 2950 0    60   ~ 0
A11
Entry Wire Line
	6050 3750 6150 3850
Text Label 6200 3850 0    60   ~ 0
A9
Text Label 6375 4725 1    60   ~ 0
~A8.A9.A11
Text Label 7950 3325 1    60   ~ 0
A8.A11
Entry Wire Line
	6050 5275 6150 5375
Text Label 6475 5375 0    60   ~ 0
A10
Text Label 7950 5525 1    60   ~ 0
~READ_KB
Text Label 8075 6100 1    60   ~ 0
WR_DISP
$Comp
L mk14-rescue:GND #PWR02
U 1 1 5AD09B27
P 7850 9800
F 0 "#PWR02" H 7850 9550 50  0001 C CNN
F 1 "GND" H 7850 9650 50  0000 C CNN
F 2 "" H 7850 9800 50  0000 C CNN
F 3 "" H 7850 9800 50  0000 C CNN
	1    7850 9800
	1    0    0    -1  
$EndComp
Entry Wire Line
	7800 8475 7900 8575
Entry Wire Line
	7800 8375 7900 8475
Entry Wire Line
	7800 8575 7900 8675
Entry Wire Line
	7800 8675 7900 8775
Text Label 7975 8475 0    60   ~ 0
A0
Text Label 7975 8575 0    60   ~ 0
A1
Text Label 7975 8675 0    60   ~ 0
A2
Text Label 7975 8775 0    60   ~ 0
A3
Entry Wire Line
	7525 7200 7625 7300
Entry Wire Line
	7525 7300 7625 7400
Entry Wire Line
	7525 7400 7625 7500
Entry Wire Line
	7525 7500 7625 7600
NoConn ~ 8025 7700
NoConn ~ 8025 7800
Text Label 7675 7300 0    60   ~ 0
D4
Text Label 7675 7400 0    60   ~ 0
D5
Text Label 7675 7500 0    60   ~ 0
D6
Text Label 7675 7600 0    60   ~ 0
D7
$Comp
L mk14-rescue:GND #PWR03
U 1 1 5AD0E198
P 9675 7875
F 0 "#PWR03" H 9675 7625 50  0001 C CNN
F 1 "GND" H 9675 7725 50  0000 C CNN
F 2 "" H 9675 7875 50  0000 C CNN
F 3 "" H 9675 7875 50  0000 C CNN
	1    9675 7875
	1    0    0    -1  
$EndComp
$Comp
L mk14-rescue:74LS157 U9
U 1 1 5AD0F4B1
P 9450 4950
F 0 "U9" H 9500 5100 50  0000 C CNN
F 1 "74LS157" H 9500 4800 50  0000 C CNN
F 2 "Housings_DIP:DIP-16_W7.62mm" H 9450 4950 50  0001 C CNN
F 3 "" H 9450 4950 50  0000 C CNN
	1    9450 4950
	1    0    0    -1  
$EndComp
$Comp
L mk14-rescue:GND #PWR04
U 1 1 5AD0FD8C
P 8600 7000
F 0 "#PWR04" H 8600 6750 50  0001 C CNN
F 1 "GND" H 8600 6850 50  0000 C CNN
F 2 "" H 8600 7000 50  0000 C CNN
F 3 "" H 8600 7000 50  0000 C CNN
	1    8600 7000
	1    0    0    -1  
$EndComp
$Comp
L mk14-rescue:GND #PWR05
U 1 1 5AD0FF50
P 8350 5500
F 0 "#PWR05" H 8350 5250 50  0001 C CNN
F 1 "GND" H 8350 5350 50  0000 C CNN
F 2 "" H 8350 5500 50  0000 C CNN
F 3 "" H 8350 5500 50  0000 C CNN
	1    8350 5500
	1    0    0    -1  
$EndComp
Entry Wire Line
	8150 4400 8250 4500
Entry Wire Line
	8150 5150 8250 5250
Entry Wire Line
	8150 4650 8250 4750
Entry Wire Line
	8150 4900 8250 5000
Text Label 8275 4500 0    60   ~ 0
D0
Text Label 8275 4750 0    60   ~ 0
D1
Text Label 8275 5000 0    60   ~ 0
D2
Text Label 8275 5250 0    60   ~ 0
D3
Entry Wire Line
	8150 5900 8250 6000
Entry Wire Line
	8150 6150 8250 6250
Entry Wire Line
	8150 6400 8250 6500
Entry Wire Line
	8150 6650 8250 6750
Text Label 8275 6000 0    60   ~ 0
D4
Text Label 8275 6250 0    60   ~ 0
D5
Text Label 8275 6500 0    60   ~ 0
D6
Text Label 8275 6750 0    60   ~ 0
D7
$Comp
L mk14-rescue:74LS08 U15
U 2 1 5AD11C61
P 11350 6350
F 0 "U15" H 11350 6400 50  0000 C CNN
F 1 "7408" H 11350 6300 50  0000 C CNN
F 2 "Housings_DIP:DIP-14_W7.62mm" H 11350 6350 50  0001 C CNN
F 3 "" H 11350 6350 50  0000 C CNN
	2    11350 6350
	1    0    0    -1  
$EndComp
$Comp
L mk14-rescue:74LS08 U15
U 3 1 5AD11CC2
P 11350 6825
F 0 "U15" H 11350 6875 50  0000 C CNN
F 1 "7408" H 11350 6775 50  0000 C CNN
F 2 "Housings_DIP:DIP-14_W7.62mm" H 11350 6825 50  0001 C CNN
F 3 "" H 11350 6825 50  0000 C CNN
	3    11350 6825
	1    0    0    -1  
$EndComp
$Comp
L mk14-rescue:74LS08 U15
U 4 1 5AD11D4F
P 11350 7300
F 0 "U15" H 11350 7350 50  0000 C CNN
F 1 "7408" H 11350 7250 50  0000 C CNN
F 2 "Housings_DIP:DIP-14_W7.62mm" H 11350 7300 50  0001 C CNN
F 3 "" H 11350 7300 50  0000 C CNN
	4    11350 7300
	1    0    0    -1  
$EndComp
$Comp
L mk14-rescue:R_Small R6
U 1 1 5AD13EE1
P 10625 3800
F 0 "R6" H 10655 3820 50  0000 L CNN
F 1 "1K2" H 10655 3760 50  0000 L CNN
F 2 "ikrlib:Res_H_15" H 10625 3800 50  0001 C CNN
F 3 "" H 10625 3800 50  0000 C CNN
	1    10625 3800
	1    0    0    -1  
$EndComp
$Comp
L mk14-rescue:VCC #PWR06
U 1 1 5AD1416E
P 10625 3650
F 0 "#PWR06" H 10625 3500 50  0001 C CNN
F 1 "VCC" H 10625 3800 50  0000 C CNN
F 2 "" H 10625 3650 50  0000 C CNN
F 3 "" H 10625 3650 50  0000 C CNN
	1    10625 3650
	1    0    0    -1  
$EndComp
$Comp
L mk14-rescue:R_Small R7
U 1 1 5AD16363
P 11325 7800
F 0 "R7" H 11275 7950 39  0001 L CNN
F 1 "1K2" V 11325 7750 39  0000 L CNN
F 2 "ikrlib:Res_H_15" H 11325 7800 50  0001 C CNN
F 3 "" H 11325 7800 50  0000 C CNN
	1    11325 7800
	1    0    0    -1  
$EndComp
$Comp
L mk14-rescue:R_Small R8
U 1 1 5AD16369
P 11425 7800
F 0 "R8" H 11375 7950 39  0001 L CNN
F 1 "1K2" V 11425 7750 39  0000 L CNN
F 2 "ikrlib:Res_H_15" H 11425 7800 50  0001 C CNN
F 3 "" H 11425 7800 50  0000 C CNN
	1    11425 7800
	1    0    0    -1  
$EndComp
$Comp
L mk14-rescue:R_Small R9
U 1 1 5AD1636F
P 11525 7800
F 0 "R9" H 11475 7950 39  0001 L CNN
F 1 "1K2" V 11525 7750 39  0000 L CNN
F 2 "ikrlib:Res_H_15" H 11525 7800 50  0001 C CNN
F 3 "" H 11525 7800 50  0000 C CNN
	1    11525 7800
	1    0    0    -1  
$EndComp
$Comp
L mk14-rescue:R_Small R10
U 1 1 5AD16375
P 11625 7800
F 0 "R10" H 11575 7950 39  0001 L CNN
F 1 "1K2" V 11625 7750 39  0000 L CNN
F 2 "ikrlib:Res_H_15" H 11625 7800 50  0001 C CNN
F 3 "" H 11625 7800 50  0000 C CNN
	1    11625 7800
	1    0    0    -1  
$EndComp
$Comp
L mk14-rescue:VCC #PWR07
U 1 1 5AD1637B
P 11800 7675
F 0 "#PWR07" H 11800 7525 50  0001 C CNN
F 1 "VCC" H 11800 7825 50  0000 C CNN
F 2 "" H 11800 7675 50  0000 C CNN
F 3 "" H 11800 7675 50  0000 C CNN
	1    11800 7675
	1    0    0    -1  
$EndComp
Text Notes 11325 7675 0    60   ~ 0
R7..10
$Comp
L mk14-rescue:SW_PUSH_SMALL SW2
U 1 1 5AD187B8
P 13200 7900
F 0 "SW2" H 13200 8025 39  0001 C CNN
F 1 "0" H 13175 7825 50  0000 C CNN
F 2 "ikrlib:TactSw-12mm-sq" H 13200 7900 50  0001 C CNN
F 3 "" H 13200 7900 50  0000 C CNN
	1    13200 7900
	1    0    0    -1  
$EndComp
$Comp
L mk14-rescue:SW_PUSH_SMALL SW5
U 1 1 5AD18E60
P 13425 7900
F 0 "SW5" H 13425 8025 39  0001 C CNN
F 1 "1" H 13400 7825 50  0000 C CNN
F 2 "ikrlib:TactSw-12mm-sq" H 13425 7900 50  0001 C CNN
F 3 "" H 13425 7900 50  0000 C CNN
	1    13425 7900
	1    0    0    -1  
$EndComp
$Comp
L mk14-rescue:SW_PUSH_SMALL SW8
U 1 1 5AD18EDA
P 13650 7900
F 0 "SW8" H 13650 8025 39  0001 C CNN
F 1 "2" H 13625 7825 50  0000 C CNN
F 2 "ikrlib:TactSw-12mm-sq" H 13650 7900 50  0001 C CNN
F 3 "" H 13650 7900 50  0000 C CNN
	1    13650 7900
	1    0    0    -1  
$EndComp
$Comp
L mk14-rescue:SW_PUSH_SMALL SW11
U 1 1 5AD18F54
P 13875 7900
F 0 "SW11" H 13875 8025 39  0001 C CNN
F 1 "3" H 13850 7825 50  0000 C CNN
F 2 "ikrlib:TactSw-12mm-sq" H 13875 7900 50  0001 C CNN
F 3 "" H 13875 7900 50  0000 C CNN
	1    13875 7900
	1    0    0    -1  
$EndComp
$Comp
L mk14-rescue:SW_PUSH_SMALL SW14
U 1 1 5AD18FCE
P 14100 7900
F 0 "SW14" H 14100 8025 39  0001 C CNN
F 1 "4" H 14075 7825 50  0000 C CNN
F 2 "ikrlib:TactSw-12mm-sq" H 14100 7900 50  0001 C CNN
F 3 "" H 14100 7900 50  0000 C CNN
	1    14100 7900
	1    0    0    -1  
$EndComp
$Comp
L mk14-rescue:SW_PUSH_SMALL SW16
U 1 1 5AD1971D
P 14325 7900
F 0 "SW16" H 14325 8025 39  0001 C CNN
F 1 "5" H 14300 7825 50  0000 C CNN
F 2 "ikrlib:TactSw-12mm-sq" H 14325 7900 50  0001 C CNN
F 3 "" H 14325 7900 50  0000 C CNN
	1    14325 7900
	1    0    0    -1  
$EndComp
$Comp
L mk14-rescue:SW_PUSH_SMALL SW17
U 1 1 5AD19723
P 14550 7900
F 0 "SW17" H 14550 8025 39  0001 C CNN
F 1 "6" H 14525 7825 50  0000 C CNN
F 2 "ikrlib:TactSw-12mm-sq" H 14550 7900 50  0001 C CNN
F 3 "" H 14550 7900 50  0000 C CNN
	1    14550 7900
	1    0    0    -1  
$EndComp
$Comp
L mk14-rescue:SW_PUSH_SMALL SW19
U 1 1 5AD19729
P 14775 7900
F 0 "SW19" H 14775 8025 39  0001 C CNN
F 1 "7" H 14750 7825 50  0000 C CNN
F 2 "ikrlib:TactSw-12mm-sq" H 14775 7900 50  0001 C CNN
F 3 "" H 14775 7900 50  0000 C CNN
	1    14775 7900
	1    0    0    -1  
$EndComp
$Comp
L mk14-rescue:SW_PUSH_SMALL SW3
U 1 1 5AD1972F
P 13200 8200
F 0 "SW3" H 13200 8325 39  0001 C CNN
F 1 "8" H 13175 8125 50  0000 C CNN
F 2 "ikrlib:TactSw-12mm-sq" H 13200 8200 50  0001 C CNN
F 3 "" H 13200 8200 50  0000 C CNN
	1    13200 8200
	1    0    0    -1  
$EndComp
$Comp
L mk14-rescue:SW_PUSH_SMALL SW6
U 1 1 5AD19735
P 13425 8200
F 0 "SW6" H 13425 8325 39  0001 C CNN
F 1 "9" H 13400 8125 50  0000 C CNN
F 2 "ikrlib:TactSw-12mm-sq" H 13425 8200 50  0001 C CNN
F 3 "" H 13425 8200 50  0000 C CNN
	1    13425 8200
	1    0    0    -1  
$EndComp
$Comp
L mk14-rescue:SW_PUSH_SMALL SW9
U 1 1 5AD1C938
P 13650 8500
F 0 "SW9" H 13650 8625 39  0001 C CNN
F 1 "GO" H 13625 8425 50  0000 C CNN
F 2 "ikrlib:TactSw-12mm-sq" H 13650 8500 50  0001 C CNN
F 3 "" H 13650 8500 50  0000 C CNN
	1    13650 8500
	1    0    0    -1  
$EndComp
$Comp
L mk14-rescue:SW_PUSH_SMALL SW4
U 1 1 5AD1C9B2
P 13200 8800
F 0 "SW4" H 13200 8925 39  0001 C CNN
F 1 "A" H 13175 8725 50  0000 C CNN
F 2 "ikrlib:TactSw-12mm-sq" H 13200 8800 50  0001 C CNN
F 3 "" H 13200 8800 50  0000 C CNN
	1    13200 8800
	1    0    0    -1  
$EndComp
$Comp
L mk14-rescue:SW_PUSH_SMALL SW12
U 1 1 5AD1CE5C
P 13875 8500
F 0 "SW12" H 13875 8625 39  0001 C CNN
F 1 "MEM" H 13850 8425 50  0000 C CNN
F 2 "ikrlib:TactSw-12mm-sq" H 13875 8500 50  0001 C CNN
F 3 "" H 13875 8500 50  0000 C CNN
	1    13875 8500
	1    0    0    -1  
$EndComp
$Comp
L mk14-rescue:SW_PUSH_SMALL SW15
U 1 1 5AD1CF45
P 14100 8500
F 0 "SW15" H 14100 8625 39  0001 C CNN
F 1 "ABT" H 14075 8425 50  0000 C CNN
F 2 "ikrlib:TactSw-12mm-sq" H 14100 8500 50  0001 C CNN
F 3 "" H 14100 8500 50  0000 C CNN
	1    14100 8500
	1    0    0    -1  
$EndComp
$Comp
L mk14-rescue:SW_PUSH_SMALL SW21
U 1 1 5AD1ED0C
P 14775 8800
F 0 "SW21" H 14775 8925 39  0001 C CNN
F 1 "F" H 14750 8725 50  0000 C CNN
F 2 "ikrlib:TactSw-12mm-sq" H 14775 8800 50  0001 C CNN
F 3 "" H 14775 8800 50  0000 C CNN
	1    14775 8800
	1    0    0    -1  
$EndComp
$Comp
L mk14-rescue:SW_PUSH_SMALL SW20
U 1 1 5AD1EFEE
P 14775 8500
F 0 "SW20" H 14775 8625 39  0001 C CNN
F 1 "TERN" H 14750 8425 50  0000 C CNN
F 2 "ikrlib:TactSw-12mm-sq" H 14775 8500 50  0001 C CNN
F 3 "" H 14775 8500 50  0000 C CNN
	1    14775 8500
	1    0    0    -1  
$EndComp
$Comp
L mk14-rescue:SW_PUSH_SMALL SW7
U 1 1 5AD1F39A
P 13425 8800
F 0 "SW7" H 13425 8925 39  0001 C CNN
F 1 "B" H 13400 8725 50  0000 C CNN
F 2 "ikrlib:TactSw-12mm-sq" H 13425 8800 50  0001 C CNN
F 3 "" H 13425 8800 50  0000 C CNN
	1    13425 8800
	1    0    0    -1  
$EndComp
$Comp
L mk14-rescue:SW_PUSH_SMALL SW10
U 1 1 5AD1F4A8
P 13650 8800
F 0 "SW10" H 13650 8925 39  0001 C CNN
F 1 "C" H 13625 8725 50  0000 C CNN
F 2 "ikrlib:TactSw-12mm-sq" H 13650 8800 50  0001 C CNN
F 3 "" H 13650 8800 50  0000 C CNN
	1    13650 8800
	1    0    0    -1  
$EndComp
$Comp
L mk14-rescue:SW_PUSH_SMALL SW13
U 1 1 5AD1F522
P 13875 8800
F 0 "SW13" H 13875 8925 39  0001 C CNN
F 1 "D" H 13850 8725 50  0000 C CNN
F 2 "ikrlib:TactSw-12mm-sq" H 13875 8800 50  0001 C CNN
F 3 "" H 13875 8800 50  0000 C CNN
	1    13875 8800
	1    0    0    -1  
$EndComp
$Comp
L mk14-rescue:SW_PUSH_SMALL SW18
U 1 1 5AD1F60B
P 14550 8800
F 0 "SW18" H 14550 8925 39  0001 C CNN
F 1 "E" H 14525 8725 50  0000 C CNN
F 2 "ikrlib:TactSw-12mm-sq" H 14550 8800 50  0001 C CNN
F 3 "" H 14550 8800 50  0000 C CNN
	1    14550 8800
	1    0    0    -1  
$EndComp
Text Label 3425 4925 0    60   ~ 0
~WDS
Text Label 3425 5025 0    60   ~ 0
~RDS
Text Label 1775 3925 0    60   ~ 0
~ADS
Text Label 1775 4425 0    60   ~ 0
SA
Text Label 1775 4525 0    60   ~ 0
SB
Text Label 1775 4625 0    60   ~ 0
FL_0
Text Label 1775 4725 0    60   ~ 0
FL_1
Text Label 1775 4825 0    60   ~ 0
FL_2
Text Label 1775 4925 0    60   ~ 0
SOUT
Text Label 1775 5025 0    60   ~ 0
SIN
NoConn ~ 2075 4125
Text Label 1750 2925 0    60   ~ 0
~RESET
$Comp
L mk14-rescue:R R11
U 1 1 5AD291F3
P 2575 1100
F 0 "R11" V 2655 1100 50  0000 C CNN
F 1 "4K7" V 2575 1100 50  0000 C CNN
F 2 "ikrlib:Res_H_15" V 2505 1100 50  0001 C CNN
F 3 "" H 2575 1100 50  0000 C CNN
	1    2575 1100
	1    0    0    -1  
$EndComp
$Comp
L mk14-rescue:CP C6
U 1 1 5AD29300
P 2575 1625
F 0 "C6" H 2600 1725 50  0000 L CNN
F 1 "22u" H 2600 1525 50  0000 L CNN
F 2 "Capacitors_ThroughHole:C_Rect_L18_W5_P15" H 2613 1475 50  0001 C CNN
F 3 "" H 2575 1625 50  0000 C CNN
	1    2575 1625
	1    0    0    -1  
$EndComp
$Comp
L mk14-rescue:SW_PUSH SW1
U 1 1 5AD293C1
P 2950 1550
F 0 "SW1" H 3100 1660 50  0000 C CNN
F 1 "RESET" H 2950 1470 50  0000 C CNN
F 2 "ikrlib:PushSwitch-D6C40LFS" H 2950 1550 50  0001 C CNN
F 3 "" H 2950 1550 50  0000 C CNN
	1    2950 1550
	0    1    1    0   
$EndComp
$Comp
L mk14-rescue:GND #PWR08
U 1 1 5AD29F1D
P 2575 1950
F 0 "#PWR08" H 2575 1700 50  0001 C CNN
F 1 "GND" H 2575 1800 50  0000 C CNN
F 2 "" H 2575 1950 50  0000 C CNN
F 3 "" H 2575 1950 50  0000 C CNN
	1    2575 1950
	1    0    0    -1  
$EndComp
$Comp
L mk14-rescue:VCC #PWR09
U 1 1 5AD29F83
P 2575 750
F 0 "#PWR09" H 2575 600 50  0001 C CNN
F 1 "VCC" H 2575 900 50  0000 C CNN
F 2 "" H 2575 750 50  0000 C CNN
F 3 "" H 2575 750 50  0000 C CNN
	1    2575 750 
	1    0    0    -1  
$EndComp
$Comp
L mk14-rescue:R_Small R1
U 1 1 5AD2A7B2
P 2075 2450
F 0 "R1" H 1975 2550 50  0000 L CNN
F 1 "4K7" V 2075 2375 39  0000 L CNN
F 2 "ikrlib:Res_H_15" H 2075 2450 50  0001 C CNN
F 3 "" H 2075 2450 50  0000 C CNN
	1    2075 2450
	1    0    0    -1  
$EndComp
$Comp
L mk14-rescue:R_Small R2
U 1 1 5AD2A829
P 1975 2450
F 0 "R2" H 1875 2550 50  0000 L CNN
F 1 "2K4" V 1975 2375 39  0000 L CNN
F 2 "ikrlib:Res_H_15" H 1975 2450 50  0001 C CNN
F 3 "" H 1975 2450 50  0000 C CNN
	1    1975 2450
	1    0    0    -1  
$EndComp
$Comp
L mk14-rescue:VCC #PWR010
U 1 1 5AD2AE62
P 2025 2225
F 0 "#PWR010" H 2025 2075 50  0001 C CNN
F 1 "VCC" H 2025 2375 50  0000 C CNN
F 2 "" H 2025 2225 50  0000 C CNN
F 3 "" H 2025 2225 50  0000 C CNN
	1    2025 2225
	1    0    0    -1  
$EndComp
$Comp
L mk14-rescue:Crystal_Small X1
U 1 1 5AD2BE18
P 1600 3425
F 0 "X1" H 1600 3525 50  0000 C CNN
F 1 "4.433619MHz" H 1600 3325 50  0000 C CNN
F 2 "Crystals:Crystal_HC49-U_Vertical" H 1600 3425 50  0001 C CNN
F 3 "" H 1600 3425 50  0000 C CNN
	1    1600 3425
	0    1    1    0   
$EndComp
$Comp
L mk14-rescue:R_Small R4
U 1 1 5AD2C2BD
P 1875 3625
F 0 "R4" V 1825 3625 50  0000 L CNN
F 1 "1K2" V 1875 3550 39  0000 L CNN
F 2 "ikrlib:Res_H_15" H 1875 3625 50  0001 C CNN
F 3 "" H 1875 3625 50  0000 C CNN
	1    1875 3625
	0    1    1    0   
$EndComp
$Comp
L mk14-rescue:C_Small C1
U 1 1 5AD2CD19
P 2000 3450
F 0 "C1" H 2010 3520 50  0000 L CNN
F 1 "27p" H 2010 3370 50  0000 L CNN
F 2 "Capacitors_ThroughHole:C_Rect_L18_W5_P15" H 2000 3450 50  0001 C CNN
F 3 "" H 2000 3450 50  0000 C CNN
	1    2000 3450
	1    0    0    -1  
$EndComp
$Comp
L mk14-rescue:GND #PWR011
U 1 1 5AD2D13F
P 2175 3325
F 0 "#PWR011" H 2175 3075 50  0001 C CNN
F 1 "GND" H 2175 3175 50  0000 C CNN
F 2 "" H 2175 3325 50  0000 C CNN
F 3 "" H 2175 3325 50  0000 C CNN
	1    2175 3325
	1    0    0    -1  
$EndComp
$Comp
L mk14-rescue:GND #PWR012
U 1 1 5AD2D625
P 1450 4050
F 0 "#PWR012" H 1450 3800 50  0001 C CNN
F 1 "GND" H 1450 3900 50  0000 C CNN
F 2 "" H 1450 4050 50  0000 C CNN
F 3 "" H 1450 4050 50  0000 C CNN
	1    1450 4050
	1    0    0    -1  
$EndComp
Entry Wire Line
	8500 2525 8600 2625
Entry Wire Line
	8500 2625 8600 2725
Entry Wire Line
	8500 2725 8600 2825
Entry Wire Line
	8500 2825 8600 2925
Entry Wire Line
	8500 2925 8600 3025
Entry Wire Line
	8500 3025 8600 3125
Entry Wire Line
	8500 3125 8600 3225
Entry Wire Line
	8500 3225 8600 3325
Text Label 8650 2625 0    60   ~ 0
A0
Text Label 8650 2725 0    60   ~ 0
A1
Text Label 8650 2825 0    60   ~ 0
A2
Text Label 8650 2925 0    60   ~ 0
A3
Text Label 8650 3025 0    60   ~ 0
A4
Text Label 8650 3125 0    60   ~ 0
A5
Text Label 8650 3225 0    60   ~ 0
A6
Text Label 8650 3325 0    60   ~ 0
A7
Entry Wire Line
	8150 2325 8250 2425
Entry Wire Line
	8150 2225 8250 2325
Entry Wire Line
	8150 2125 8250 2225
Entry Wire Line
	8150 2025 8250 2125
Entry Wire Line
	8150 1625 8250 1725
Entry Wire Line
	8150 1725 8250 1825
Entry Wire Line
	8150 1825 8250 1925
Entry Wire Line
	8150 1925 8250 2025
Text Label 8275 1725 0    60   ~ 0
D0
Text Label 8275 1825 0    60   ~ 0
D1
Text Label 8275 1925 0    60   ~ 0
D2
Text Label 8275 2025 0    60   ~ 0
D3
Text Label 8275 2125 0    60   ~ 0
D4
Text Label 8275 2225 0    60   ~ 0
D5
Text Label 8275 2325 0    60   ~ 0
D6
Text Label 8275 2425 0    60   ~ 0
D7
Text Label 8625 1325 0    60   ~ 0
~RESET
Text Label 8625 1425 0    60   ~ 0
~WDS
Text Label 8625 1525 0    60   ~ 0
~RDS
Entry Wire Line
	8500 3425 8600 3525
Entry Wire Line
	8500 3525 8600 3625
Text Label 8650 3525 0    60   ~ 0
A8
Text Label 8650 3625 0    60   ~ 0
A11
$Comp
L mk14-rescue:R_Small R3
U 1 1 5AD32256
P 1800 3375
F 0 "R3" H 1700 3475 50  0000 L CNN
F 1 "100K" V 1800 3300 39  0000 L CNN
F 2 "ikrlib:Res_H_15" H 1800 3375 50  0001 C CNN
F 3 "" H 1800 3375 50  0000 C CNN
	1    1800 3375
	1    0    0    -1  
$EndComp
$Comp
L mk14-rescue:R_Small R5
U 1 1 5AD344C2
P 1625 7550
F 0 "R5" H 1525 7650 50  0000 L CNN
F 1 "2K4" V 1625 7475 39  0000 L CNN
F 2 "ikrlib:Res_H_15" H 1625 7550 50  0001 C CNN
F 3 "" H 1625 7550 50  0000 C CNN
	1    1625 7550
	1    0    0    -1  
$EndComp
$Comp
L mk14-rescue:VCC #PWR013
U 1 1 5AD35A64
P 1625 7425
F 0 "#PWR013" H 1625 7275 50  0001 C CNN
F 1 "VCC" H 1625 7575 50  0000 C CNN
F 2 "" H 1625 7425 50  0000 C CNN
F 3 "" H 1625 7425 50  0000 C CNN
	1    1625 7425
	1    0    0    -1  
$EndComp
$Comp
L mk14-rescue:CONN_01X32 P1
U 1 1 5AD3838E
P 13125 2625
F 0 "P1" H 13125 4275 50  0000 C CNN
F 1 "CONN_01X32" V 13225 2625 50  0000 C CNN
F 2 "ikrlib:EdgeConn-32-100mil" H 13125 2625 50  0001 C CNN
F 3 "" H 13125 2625 50  0000 C CNN
	1    13125 2625
	1    0    0    -1  
$EndComp
$Comp
L mk14-rescue:+8V #PWR014
U 1 1 5AD385FA
P 12800 1075
F 0 "#PWR014" H 12800 925 50  0001 C CNN
F 1 "+8V" H 12800 1215 50  0000 C CNN
F 2 "" H 12800 1075 50  0000 C CNN
F 3 "" H 12800 1075 50  0000 C CNN
	1    12800 1075
	1    0    0    -1  
$EndComp
$Comp
L mk14-rescue:GND #PWR015
U 1 1 5AD38E82
P 12700 1375
F 0 "#PWR015" H 12700 1125 50  0001 C CNN
F 1 "GND" H 12700 1225 50  0000 C CNN
F 2 "" H 12700 1375 50  0000 C CNN
F 3 "" H 12700 1375 50  0000 C CNN
	1    12700 1375
	1    0    0    -1  
$EndComp
Text Label 12700 1775 0    60   ~ 0
~ADS
Text Label 12700 1875 0    60   ~ 0
PB6
Text Label 12700 1975 0    60   ~ 0
PB5
Text Label 12700 2075 0    60   ~ 0
PB7
Text Label 12700 2175 0    60   ~ 0
PB4
Text Label 12700 2575 0    60   ~ 0
PB0
Text Label 12700 2475 0    60   ~ 0
PB1
Text Label 12700 2375 0    60   ~ 0
PB2
Text Label 12700 2275 0    60   ~ 0
PB3
Text Label 12700 2675 0    60   ~ 0
PA7
Text Label 12700 2875 0    60   ~ 0
PA6
Text Label 12700 2975 0    60   ~ 0
PA0
Text Label 12700 3075 0    60   ~ 0
PA5
Text Label 12700 3175 0    60   ~ 0
PA1
Text Label 12700 3275 0    60   ~ 0
PA2
Text Label 12700 3375 0    60   ~ 0
PA4
Text Label 12700 3475 0    60   ~ 0
PA3
Text Label 12700 3575 0    60   ~ 0
SA
Text Label 12700 3675 0    60   ~ 0
SIN
Text Label 12700 3775 0    60   ~ 0
SB
Text Label 12700 3875 0    60   ~ 0
SOUT
Text Label 12700 3975 0    60   ~ 0
FL_0
Text Label 12700 4075 0    60   ~ 0
FL_2
Text Label 12700 4175 0    60   ~ 0
FL_1
Text Label 10325 1525 2    60   ~ 0
INTR
Text Label 10325 1725 2    60   ~ 0
PA0
Text Label 10325 1825 2    60   ~ 0
PA1
Text Label 10325 1925 2    60   ~ 0
PA2
Text Label 10325 2025 2    60   ~ 0
PA3
Text Label 10325 2125 2    60   ~ 0
PA4
Text Label 10325 2225 2    60   ~ 0
PA5
Text Label 10325 2325 2    60   ~ 0
PA6
Text Label 10325 2425 2    60   ~ 0
PA7
Text Label 10325 2625 2    60   ~ 0
PB0
Text Label 10325 2725 2    60   ~ 0
PB1
Text Label 10325 2825 2    60   ~ 0
PB2
Text Label 10325 2925 2    60   ~ 0
PB3
Text Label 10325 3025 2    60   ~ 0
PB4
Text Label 10325 3125 2    60   ~ 0
PB5
Text Label 10325 3225 2    60   ~ 0
PB6
Text Label 10325 3325 2    60   ~ 0
PB7
$Comp
L mk14-rescue:C_Small C3
U 1 1 5AD3CD08
P 3050 10725
F 0 "C3" H 3060 10795 50  0000 L CNN
F 1 "100n" H 3060 10645 50  0000 L CNN
F 2 "Capacitors_ThroughHole:C_Disc_D6_P5" H 3050 10725 50  0001 C CNN
F 3 "" H 3050 10725 50  0000 C CNN
	1    3050 10725
	1    0    0    -1  
$EndComp
$Comp
L mk14-rescue:C_Small C4
U 1 1 5AD3CDA5
P 3250 10725
F 0 "C4" H 3260 10795 50  0000 L CNN
F 1 "100n" H 3260 10645 50  0000 L CNN
F 2 "Capacitors_ThroughHole:C_Disc_D6_P5" H 3250 10725 50  0001 C CNN
F 3 "" H 3250 10725 50  0000 C CNN
	1    3250 10725
	1    0    0    -1  
$EndComp
$Comp
L mk14-rescue:GND #PWR016
U 1 1 5AD3EFF7
P 2050 10875
F 0 "#PWR016" H 2050 10625 50  0001 C CNN
F 1 "GND" H 2050 10725 50  0000 C CNN
F 2 "" H 2050 10875 50  0000 C CNN
F 3 "" H 2050 10875 50  0000 C CNN
	1    2050 10875
	1    0    0    -1  
$EndComp
$Comp
L mk14-rescue:VCC #PWR017
U 1 1 5AD40169
P 3300 10400
F 0 "#PWR017" H 3300 10250 50  0001 C CNN
F 1 "VCC" H 3300 10550 50  0000 C CNN
F 2 "" H 3300 10400 50  0000 C CNN
F 3 "" H 3300 10400 50  0000 C CNN
	1    3300 10400
	1    0    0    -1  
$EndComp
$Comp
L mk14-rescue:+8V #PWR018
U 1 1 5AD40473
P 2075 10400
F 0 "#PWR018" H 2075 10250 50  0001 C CNN
F 1 "+8V" H 2075 10540 50  0000 C CNN
F 2 "" H 2075 10400 50  0000 C CNN
F 3 "" H 2075 10400 50  0000 C CNN
	1    2075 10400
	1    0    0    -1  
$EndComp
$Comp
L mk14-rescue:CP C2
U 1 1 5AD4077E
P 2075 10625
F 0 "C2" H 2100 10725 50  0000 L CNN
F 1 "1000u" H 2100 10525 50  0000 L CNN
F 2 "Capacitors_ThroughHole:C_Axial_D16_L40_P48" H 2113 10475 50  0001 C CNN
F 3 "" H 2075 10625 50  0000 C CNN
	1    2075 10625
	1    0    0    -1  
$EndComp
$Comp
L mk14-rescue:CONN_01X16 P2
U 1 1 5AD40FB6
P 14100 2675
F 0 "P2" H 14100 3525 50  0000 C CNN
F 1 "CONN_01X16" V 14200 2675 50  0000 C CNN
F 2 "ikrlib:EdgeConn-16-100mil" H 14100 2675 50  0001 C CNN
F 3 "" H 14100 2675 50  0000 C CNN
	1    14100 2675
	1    0    0    -1  
$EndComp
$Comp
L mk14-rescue:GND #PWR019
U 1 1 5AD412FB
P 14325 1825
F 0 "#PWR019" H 14325 1575 50  0001 C CNN
F 1 "GND" H 14325 1675 50  0000 C CNN
F 2 "" H 14325 1825 50  0000 C CNN
F 3 "" H 14325 1825 50  0000 C CNN
	1    14325 1825
	1    0    0    -1  
$EndComp
Text Label 11500 9000 2    60   ~ 0
COL0
Text Label 11500 9100 2    60   ~ 0
COL1
Text Label 11500 9200 2    60   ~ 0
COL2
Text Label 11500 9300 2    60   ~ 0
COL3
Text Label 11500 9400 2    60   ~ 0
COL4
Text Label 11500 9500 2    60   ~ 0
COL5
Text Label 11500 9600 2    60   ~ 0
COL6
Text Label 11500 9700 2    60   ~ 0
COL7
Text Label 11500 9800 2    60   ~ 0
COL8
Text Label 11500 9900 2    60   ~ 0
COL9
Text Label 15175 8000 2    60   ~ 0
ROW0
Text Label 15175 8300 2    60   ~ 0
ROW1
Text Label 15175 8600 2    60   ~ 0
ROW2
Text Label 15175 8900 2    60   ~ 0
ROW3
Text Label 12700 2775 0    60   ~ 0
INTR
Text Label 13550 3025 0    60   ~ 0
COL0
Text Label 13550 2925 0    60   ~ 0
COL1
Text Label 13550 2825 0    60   ~ 0
COL2
Text Label 13550 2725 0    60   ~ 0
COL3
Text Label 13550 2525 0    60   ~ 0
COL4
Text Label 13550 2325 0    60   ~ 0
COL5
Text Label 13550 2125 0    60   ~ 0
COL6
Text Label 13550 2225 0    60   ~ 0
COL7
Text Label 13550 2425 0    60   ~ 0
COL8
Text Label 13550 2625 0    60   ~ 0
COL9
Text Label 13550 3425 0    60   ~ 0
ROW0
Text Label 13550 3325 0    60   ~ 0
ROW1
Text Label 13550 3125 0    60   ~ 0
ROW2
Text Label 13550 3225 0    60   ~ 0
ROW3
$Comp
L mk14-rescue:CONN_01X03 JP1
U 1 1 5AD51053
P 7075 8625
F 0 "JP1" H 7075 8825 50  0000 C CNN
F 1 "MEM TYPE" V 7175 8625 50  0000 C CNN
F 2 "ikrlib:PCB-JP-3" H 7075 8625 50  0001 C CNN
F 3 "" H 7075 8625 50  0000 C CNN
	1    7075 8625
	0    1    1    0   
$EndComp
Text Notes 6875 8825 0    31   ~ 0
MM2111    65X61
Text Label 7025 9750 0    60   ~ 0
READ+WRITE
Entry Wire Line
	6050 1075 6150 1175
Text Label 6175 1175 0    60   ~ 0
A11
$Comp
L mk14-rescue:PWR_FLAG #FLG020
U 1 1 5AD5BB9A
P 12450 1075
F 0 "#FLG020" H 12450 1170 50  0001 C CNN
F 1 "PWR_FLAG" H 12450 1255 50  0000 C CNN
F 2 "" H 12450 1075 50  0000 C CNN
F 3 "" H 12450 1075 50  0000 C CNN
	1    12450 1075
	1    0    0    -1  
$EndComp
$Comp
L mk14-rescue:PWR_FLAG #FLG021
U 1 1 5AD5C9BD
P 12425 1575
F 0 "#FLG021" H 12425 1670 50  0001 C CNN
F 1 "PWR_FLAG" H 12425 1755 50  0000 C CNN
F 2 "" H 12425 1575 50  0000 C CNN
F 3 "" H 12425 1575 50  0000 C CNN
	1    12425 1575
	1    0    0    -1  
$EndComp
Text Notes 2825 6425 0    39   ~ 0
Note: Address and data pins on the\nRAM chips have been remapped from \ntheir data sheet designations to\nsimplify board layout. This does not\naffect their function.\na0  -> a3\na1  -> a4\na2  -> a5\na3  -> a6\na4  -> a7\na5  -> a0\na6  -> a1\na7  -> a2\nd0  -> d3\nd1  -> d2\nd2  -> d1\nd3 -> d0
$Comp
L mk14-rescue:TRK-LNK JP2
U 1 1 5BB74A37
P 1625 4700
F 0 "JP2" H 1625 4675 60  0000 C CNN
F 1 "GND SA" H 1625 4800 60  0000 C CNN
F 2 "ikrlib:PCB-JP-2-CL" H 1525 4575 60  0001 C CNN
F 3 "" H 1625 4700 60  0000 C CNN
	1    1625 4700
	0    -1   -1   0   
$EndComp
$Comp
L mk14-rescue:GND #PWR022
U 1 1 5BB74EF1
P 1625 5025
F 0 "#PWR022" H 1625 4775 50  0001 C CNN
F 1 "GND" H 1625 4875 50  0000 C CNN
F 2 "" H 1625 5025 50  0000 C CNN
F 3 "" H 1625 5025 50  0000 C CNN
	1    1625 5025
	1    0    0    -1  
$EndComp
$Comp
L mk14-rescue:INS8060 U1
U 1 1 5BB99016
P 2725 3825
F 0 "U1" H 2725 4350 60  0000 C CNN
F 1 "INS8060" H 2725 4175 60  0000 C CNN
F 2 "Housings_DIP:DIP-40_W15.24mm" H 2725 3725 60  0001 C CNN
F 3 "" H 2725 3725 60  0000 C CNN
	1    2725 3825
	1    0    0    -1  
$EndComp
Text Notes 4525 8000 0    60   ~ 0
B00...\nBFF
Text Notes 4575 5275 0    60   ~ 0
F00...\nFFF
Text Notes 4575 2525 0    60   ~ 0
000...\n1FF
$Comp
L mk14-rescue:7SEG_9DIG DS1
U 1 1 5BC87472
P 13825 6875
F 0 "DS1" H 14150 7225 39  0000 C CNN
F 1 "7SEG_9DIG" H 14525 7225 39  0000 C CNN
F 2 "Pin_Headers:Pin_Header_Straight_1x18" H 13425 7425 39  0001 C CNN
F 3 "" H 13425 7425 39  0000 C CNN
	1    13825 6875
	1    0    0    -1  
$EndComp
NoConn ~ 14775 7600
Text Label 3275 1250 2    60   ~ 0
RESET_BTN
Text Label 13550 2025 0    60   ~ 0
RESET_BTN
$Comp
L mk14-rescue:CONN_01X32 P4
U 1 1 5C361A1F
P 14975 2775
F 0 "P4" H 14975 4425 50  0000 C CNN
F 1 "CONN_01X32" V 15075 2775 50  0000 C CNN
F 2 "ikrlib:EdgeConn-32-100mil" H 14975 2775 50  0001 C CNN
F 3 "" H 14975 2775 50  0000 C CNN
	1    14975 2775
	1    0    0    -1  
$EndComp
$Comp
L mk14-rescue:GND #PWR023
U 1 1 5C44C0E0
P 14675 1150
F 0 "#PWR023" H 14675 900 50  0001 C CNN
F 1 "GND" H 14675 1000 50  0000 C CNN
F 2 "" H 14675 1150 50  0000 C CNN
F 3 "" H 14675 1150 50  0000 C CNN
	1    14675 1150
	1    0    0    1   
$EndComp
Text Label 14550 1325 0    60   ~ 0
A0
Text Label 14550 1425 0    60   ~ 0
A1
Text Label 14550 1525 0    60   ~ 0
A2
Text Label 14550 1625 0    60   ~ 0
A3
Text Label 14550 1725 0    60   ~ 0
A4
Text Label 14550 1825 0    60   ~ 0
A5
Text Label 14550 1925 0    60   ~ 0
A6
Text Label 14550 2025 0    60   ~ 0
A7
Text Label 14550 2125 0    60   ~ 0
A8
Text Label 14550 2225 0    60   ~ 0
A9
Text Label 14550 2325 0    60   ~ 0
A10
Text Label 14550 2425 0    60   ~ 0
A11
Text Label 14550 2925 0    60   ~ 0
D0
Text Label 14550 3025 0    60   ~ 0
D1
Text Label 14550 3125 0    60   ~ 0
D2
Text Label 14550 3225 0    60   ~ 0
D3
Text Label 14550 3325 0    60   ~ 0
D4
Text Label 14550 3425 0    60   ~ 0
D5
Text Label 14550 3525 0    60   ~ 0
D6
Text Label 14550 3625 0    60   ~ 0
D7
Text Label 14550 3925 0    60   ~ 0
~RDS
Text Label 14550 4225 0    60   ~ 0
~ENIN
$Comp
L mk14-rescue:R_Small R16
U 1 1 5C460C2F
P 1700 4025
F 0 "R16" V 1650 4025 50  0000 L CNN
F 1 "4k7" V 1700 3950 39  0000 L CNN
F 2 "ikrlib:Res_H_15" H 1700 4025 50  0001 C CNN
F 3 "" H 1700 4025 50  0000 C CNN
	1    1700 4025
	0    1    1    0   
$EndComp
Text Label 1850 4025 0    60   ~ 0
~ENIN
$Comp
L mk14-rescue:VCC #PWR024
U 1 1 5C46510F
P 14375 4325
F 0 "#PWR024" H 14375 4175 50  0001 C CNN
F 1 "VCC" H 14375 4475 50  0000 C CNN
F 2 "" H 14375 4325 50  0000 C CNN
F 3 "" H 14375 4325 50  0000 C CNN
	1    14375 4325
	1    0    0    1   
$EndComp
$Comp
L mk14-rescue:CONN_01X03 P5
U 1 1 5C773235
P 1250 10600
F 0 "P5" H 1250 10800 50  0000 C CNN
F 1 "POWER" V 1350 10600 50  0000 C CNN
F 2 "Connect:JACK_ALIM" H 1250 10600 50  0001 C CNN
F 3 "" H 1250 10600 50  0000 C CNN
	1    1250 10600
	1    0    0    -1  
$EndComp
NoConn ~ 1050 10700
Text Label 14550 4025 0    60   ~ 0
~WDS
NoConn ~ 14775 2525
NoConn ~ 14775 2625
NoConn ~ 14775 2725
NoConn ~ 14775 2825
Text Label 1800 3225 0    60   ~ 0
XOUT
Text Label 14550 3825 0    60   ~ 0
XOUT
NoConn ~ 14775 4125
NoConn ~ 14775 3725
Text Label 6700 5600 0    60   ~ 0
~A10
Text Label 7525 1175 0    60   ~ 0
~A11
Text Label 7000 4450 0    60   ~ 0
~A9
Text Label 1625 8000 1    60   ~ 0
PULLUP
Wire Wire Line
	3375 2725 3575 2725
Wire Wire Line
	3375 2825 3575 2825
Wire Wire Line
	3375 2925 3575 2925
Wire Wire Line
	3375 3025 3575 3025
Wire Wire Line
	3375 3125 3575 3125
Wire Wire Line
	3375 3225 3575 3225
Wire Wire Line
	3375 3325 3575 3325
Wire Wire Line
	3375 3425 3575 3425
Wire Wire Line
	3375 3525 3575 3525
Wire Wire Line
	3375 3625 3575 3625
Wire Wire Line
	3375 3725 3575 3725
Wire Wire Line
	3375 3825 3575 3825
Wire Wire Line
	5750 1975 5950 1975
Wire Wire Line
	5750 1875 5950 1875
Wire Wire Line
	5750 1775 5950 1775
Wire Wire Line
	5750 1675 5950 1675
Wire Wire Line
	5750 1575 5950 1575
Wire Wire Line
	5750 1475 5950 1475
Wire Wire Line
	5750 1375 5950 1375
Wire Wire Line
	5750 1275 5950 1275
Wire Wire Line
	5750 1175 5950 1175
Wire Wire Line
	5750 3325 5950 3325
Wire Wire Line
	5750 3225 5950 3225
Wire Wire Line
	5750 3125 5950 3125
Wire Wire Line
	5750 3025 5950 3025
Wire Wire Line
	5750 2925 5950 2925
Wire Wire Line
	5750 2825 5950 2825
Wire Wire Line
	5750 2725 5950 2725
Wire Wire Line
	5750 2625 5950 2625
Wire Wire Line
	5750 2525 5950 2525
Wire Wire Line
	5750 4600 5950 4600
Wire Wire Line
	5750 4500 5950 4500
Wire Wire Line
	5750 4400 5950 4400
Wire Wire Line
	5750 4300 5950 4300
Wire Wire Line
	5750 4200 5950 4200
Wire Wire Line
	5750 4100 5950 4100
Wire Wire Line
	5750 4000 5950 4000
Wire Wire Line
	5750 3900 5950 3900
Wire Wire Line
	5750 5975 5950 5975
Wire Wire Line
	5750 5875 5950 5875
Wire Wire Line
	5750 5775 5950 5775
Wire Wire Line
	5750 5675 5950 5675
Wire Wire Line
	5750 5575 5950 5575
Wire Wire Line
	5750 5475 5950 5475
Wire Wire Line
	5750 5375 5950 5375
Wire Wire Line
	5750 5275 5950 5275
Wire Wire Line
	5750 7350 5950 7350
Wire Wire Line
	5750 7250 5950 7250
Wire Wire Line
	5750 7150 5950 7150
Wire Wire Line
	5750 7050 5950 7050
Wire Wire Line
	5750 6950 5950 6950
Wire Wire Line
	5750 6850 5950 6850
Wire Wire Line
	5750 6750 5950 6750
Wire Wire Line
	5750 6650 5950 6650
Wire Wire Line
	5750 8725 5950 8725
Wire Wire Line
	5750 8625 5950 8625
Wire Wire Line
	5750 8525 5950 8525
Wire Wire Line
	5750 8425 5950 8425
Wire Wire Line
	5750 8325 5950 8325
Wire Wire Line
	5750 8225 5950 8225
Wire Wire Line
	5750 8125 5950 8125
Wire Wire Line
	5750 8025 5950 8025
Wire Wire Line
	5750 8975 5950 8975
Wire Wire Line
	5750 7600 5950 7600
Wire Wire Line
	6200 3675 5750 3675
Wire Wire Line
	5750 2325 6200 2325
Wire Bus Line
	3675 875  6050 875 
Wire Wire Line
	3375 4025 3800 4025
Wire Wire Line
	3375 4125 3900 4125
Wire Wire Line
	3375 4225 4000 4225
Wire Wire Line
	3375 4325 4100 4325
Wire Wire Line
	3375 4425 4250 4425
Wire Wire Line
	3375 4525 4250 4525
Wire Wire Line
	3375 4625 4250 4625
Wire Wire Line
	3375 4725 4250 4725
Wire Wire Line
	4600 1625 4450 1625
Wire Wire Line
	4600 1725 4450 1725
Wire Wire Line
	4600 1825 4450 1825
Wire Wire Line
	4600 1925 4450 1925
Wire Wire Line
	4600 2975 4450 2975
Wire Wire Line
	4600 3075 4450 3075
Wire Wire Line
	4600 3175 4450 3175
Wire Wire Line
	4600 3275 4450 3275
Wire Wire Line
	4600 4200 4450 4200
Wire Wire Line
	4600 4300 4450 4300
Wire Wire Line
	4600 4400 4450 4400
Wire Wire Line
	4600 4500 4450 4500
Wire Wire Line
	4600 6950 4450 6950
Wire Wire Line
	4600 7050 4450 7050
Wire Wire Line
	4600 7150 4450 7150
Wire Wire Line
	4600 7250 4450 7250
Wire Wire Line
	4600 5575 4450 5575
Wire Wire Line
	4600 5675 4450 5675
Wire Wire Line
	4600 5775 4450 5775
Wire Wire Line
	4600 5875 4450 5875
Wire Wire Line
	4600 8325 4450 8325
Wire Wire Line
	4600 8425 4450 8425
Wire Wire Line
	4600 8525 4450 8525
Wire Wire Line
	4600 8625 4450 8625
Wire Wire Line
	3800 3975 3800 4025
Connection ~ 3800 4025
Wire Wire Line
	3900 3975 3900 4125
Connection ~ 3900 4125
Wire Wire Line
	4000 3975 4000 4225
Connection ~ 4000 4225
Wire Wire Line
	4100 3975 4100 4325
Connection ~ 4100 4325
Wire Wire Line
	3800 3775 3900 3775
Connection ~ 4100 3775
Connection ~ 4000 3775
Connection ~ 3900 3775
Wire Wire Line
	4600 4700 4475 4700
Wire Wire Line
	4475 4700 4475 4925
Wire Wire Line
	4475 4925 4175 4925
Wire Wire Line
	4175 4925 4175 6075
Wire Wire Line
	4175 8825 4600 8825
Connection ~ 4175 4925
Wire Wire Line
	4600 6075 4175 6075
Connection ~ 4175 6075
Wire Wire Line
	4600 7450 4175 7450
Connection ~ 4175 7450
Wire Wire Line
	4175 9350 6175 9350
Connection ~ 4175 8825
Wire Wire Line
	3375 5025 4050 5025
Wire Wire Line
	4050 5025 4050 9475
Wire Wire Line
	4050 9475 6475 9475
Wire Wire Line
	6325 2750 6150 2750
Wire Wire Line
	6150 2950 6325 2950
Wire Wire Line
	6575 3600 6375 3600
Wire Wire Line
	6375 3600 6375 4950
Wire Wire Line
	6375 9075 5750 9075
Wire Wire Line
	5750 7700 6375 7700
Connection ~ 6375 7700
Wire Wire Line
	5750 6325 6375 6325
Connection ~ 6375 6325
Wire Wire Line
	5750 4950 6375 4950
Connection ~ 6375 4950
Wire Wire Line
	7525 2850 7950 2850
Wire Wire Line
	7950 2850 7950 3500
Wire Wire Line
	7950 3500 7775 3500
Wire Wire Line
	7775 3700 7850 3700
Wire Wire Line
	7850 3700 7850 3850
Wire Wire Line
	7850 3850 6575 3850
Wire Wire Line
	6675 4175 6575 4175
Wire Wire Line
	6575 4175 6575 3850
Connection ~ 6575 3850
Wire Wire Line
	7950 4550 6550 4550
Wire Wire Line
	6550 4550 6550 4700
Wire Wire Line
	6550 4700 6575 4700
Connection ~ 7950 3500
Wire Wire Line
	7575 4175 7575 4450
Wire Wire Line
	7575 4450 6450 4450
Wire Wire Line
	6450 4450 6450 4900
Wire Wire Line
	6450 4900 6575 4900
Wire Wire Line
	6700 5375 6150 5375
Wire Wire Line
	7600 5375 7650 5375
Wire Wire Line
	7650 5375 7650 5600
Wire Wire Line
	6175 4850 6175 5600
Wire Wire Line
	6175 6225 5750 6225
Wire Wire Line
	6175 4850 5750 4850
Wire Wire Line
	6725 6750 6175 6750
Wire Wire Line
	6175 6750 6175 7550
Wire Wire Line
	6750 5825 6500 5825
Wire Wire Line
	6500 5825 6500 6150
Wire Wire Line
	6500 6150 6575 6150
Wire Wire Line
	7625 6750 7675 6750
Wire Wire Line
	7675 6750 7675 6525
Wire Wire Line
	7675 6525 6500 6525
Wire Wire Line
	6500 6525 6500 6350
Wire Wire Line
	6500 6350 6575 6350
Wire Wire Line
	7650 5825 7950 5825
Wire Wire Line
	7950 4800 7950 5825
Wire Wire Line
	7950 4800 7775 4800
Wire Wire Line
	6700 9275 6175 9275
Connection ~ 6175 9275
Wire Wire Line
	7900 9375 7950 9375
Wire Wire Line
	8025 8925 7850 8925
Wire Wire Line
	7850 8925 7850 9025
Wire Wire Line
	8025 9025 7850 9025
Connection ~ 7850 9025
Wire Wire Line
	7950 9175 8000 9175
Wire Wire Line
	8000 9175 8000 9275
Wire Wire Line
	8000 9275 8025 9275
Wire Wire Line
	8025 9575 7850 9575
Connection ~ 7850 9575
Connection ~ 8000 9175
Connection ~ 7950 5825
Wire Wire Line
	7900 8475 8025 8475
Wire Wire Line
	7900 8575 8025 8575
Wire Wire Line
	7900 8675 8025 8675
Wire Wire Line
	7900 8775 8025 8775
Wire Bus Line
	7800 8325 6050 8325
Wire Wire Line
	9425 8475 9775 8475
Wire Wire Line
	9425 8575 9725 8575
Wire Wire Line
	9425 8675 9675 8675
Wire Wire Line
	9425 8775 9625 8775
Wire Wire Line
	9425 8100 9475 8100
Wire Wire Line
	9475 8100 9475 8225
Wire Wire Line
	9425 8000 9525 8000
Wire Wire Line
	9525 8000 9525 8325
Wire Wire Line
	9525 8325 7950 8325
Connection ~ 7950 8325
Wire Bus Line
	4350 700  8150 700 
Wire Bus Line
	8150 7025 7525 7025
Wire Wire Line
	8025 7600 7625 7600
Wire Wire Line
	8025 7500 7625 7500
Wire Wire Line
	8025 7400 7625 7400
Wire Wire Line
	8025 7300 7625 7300
Wire Wire Line
	9425 7700 9675 7700
Wire Wire Line
	9675 7700 9675 7800
Wire Wire Line
	9425 7800 9675 7800
Connection ~ 9675 7800
Wire Wire Line
	8675 5900 8600 5900
Wire Wire Line
	8600 5900 8600 5775
Wire Wire Line
	8600 5775 10225 5775
Wire Wire Line
	10225 5775 10225 5950
Wire Wire Line
	10175 5950 10225 5950
Wire Wire Line
	8675 6150 8550 6150
Wire Wire Line
	8550 6150 8550 5725
Wire Wire Line
	8550 5725 10275 5725
Wire Wire Line
	10275 5725 10275 6200
Wire Wire Line
	10175 6200 10275 6200
Wire Wire Line
	8675 6400 8500 6400
Wire Wire Line
	8500 6400 8500 5675
Wire Wire Line
	8500 5675 10325 5675
Wire Wire Line
	10325 5675 10325 6450
Wire Wire Line
	10175 6450 10325 6450
Wire Wire Line
	8675 6650 8450 6650
Wire Wire Line
	8450 6650 8450 5625
Wire Wire Line
	8450 5625 10375 5625
Wire Wire Line
	10375 5625 10375 6700
Wire Wire Line
	10375 6700 10175 6700
Wire Wire Line
	8700 4400 8625 4400
Wire Wire Line
	8625 4400 8625 4275
Wire Wire Line
	8625 4275 10250 4275
Wire Wire Line
	10250 4275 10250 4450
Wire Wire Line
	10200 4450 10250 4450
Wire Wire Line
	8700 4650 8575 4650
Wire Wire Line
	8575 4650 8575 4225
Wire Wire Line
	8575 4225 10300 4225
Wire Wire Line
	10300 4225 10300 4700
Wire Wire Line
	10200 4700 10300 4700
Wire Wire Line
	8700 4900 8525 4900
Wire Wire Line
	8525 4900 8525 4175
Wire Wire Line
	8525 4175 10350 4175
Wire Wire Line
	10350 4175 10350 4950
Wire Wire Line
	10200 4950 10350 4950
Wire Wire Line
	8700 5150 8475 5150
Wire Wire Line
	8475 5150 8475 4125
Wire Wire Line
	8475 4125 10400 4125
Wire Wire Line
	10400 4125 10400 5200
Wire Wire Line
	10400 5200 10200 5200
Wire Wire Line
	8075 6900 8675 6900
Wire Wire Line
	8075 5400 8075 6250
Wire Wire Line
	8075 6250 7775 6250
Wire Wire Line
	8700 5400 8075 5400
Connection ~ 8075 6250
Wire Wire Line
	8700 5500 8350 5500
Wire Wire Line
	8675 7000 8600 7000
Wire Wire Line
	8250 4500 8700 4500
Wire Wire Line
	8250 4750 8700 4750
Wire Wire Line
	8700 5000 8250 5000
Wire Wire Line
	8250 5250 8700 5250
Wire Wire Line
	8675 6000 8250 6000
Wire Wire Line
	8675 6250 8250 6250
Wire Wire Line
	8675 6500 8250 6500
Wire Wire Line
	8675 6750 8250 6750
Wire Wire Line
	10375 7400 10750 7400
Connection ~ 10375 6700
Wire Wire Line
	10450 6450 10450 6925
Wire Wire Line
	10450 6925 10750 6925
Connection ~ 10325 6450
Wire Wire Line
	10525 6200 10525 6450
Wire Wire Line
	10525 6450 10750 6450
Connection ~ 10275 6200
Wire Wire Line
	10575 5950 10575 5975
Wire Wire Line
	10575 5975 10750 5975
Connection ~ 10225 5950
Wire Wire Line
	10400 5525 10750 5525
Connection ~ 10400 5200
Wire Wire Line
	10450 4950 10450 5075
Wire Wire Line
	10450 5075 10750 5075
Connection ~ 10350 4950
Wire Wire Line
	10450 4700 10450 4625
Wire Wire Line
	10450 4625 10750 4625
Connection ~ 10300 4700
Wire Wire Line
	10450 4450 10450 4175
Wire Wire Line
	10450 4175 10750 4175
Connection ~ 10250 4450
Wire Wire Line
	10625 3650 10625 3700
Wire Wire Line
	10625 3900 10625 3975
Wire Wire Line
	10625 3975 10750 3975
Wire Wire Line
	10625 7200 10750 7200
Connection ~ 10625 3975
Wire Wire Line
	10750 6725 10625 6725
Connection ~ 10625 6725
Wire Wire Line
	10750 6250 10625 6250
Connection ~ 10625 6250
Wire Wire Line
	10750 5775 10625 5775
Connection ~ 10625 5775
Wire Wire Line
	10750 5325 10625 5325
Connection ~ 10625 5325
Wire Wire Line
	10750 4875 10625 4875
Connection ~ 10625 4875
Wire Wire Line
	10750 4425 10625 4425
Connection ~ 10625 4425
Wire Wire Line
	9925 8000 11325 8000
Wire Wire Line
	10225 7300 9425 7300
Connection ~ 14875 8000
Connection ~ 14650 8000
Connection ~ 14425 8000
Connection ~ 14200 8000
Connection ~ 13975 8000
Connection ~ 13750 8000
Connection ~ 13525 8000
Connection ~ 13300 8000
Wire Wire Line
	10025 8300 11425 8300
Wire Wire Line
	10125 7400 9425 7400
Wire Wire Line
	10125 8600 11525 8600
Wire Wire Line
	10025 7500 9425 7500
Wire Wire Line
	10225 8900 11625 8900
Wire Wire Line
	9925 7600 9425 7600
Wire Wire Line
	9775 8475 9775 9300
Wire Wire Line
	9775 9300 9825 9300
Wire Wire Line
	9725 8575 9725 9400
Wire Wire Line
	9725 9400 9825 9400
Wire Wire Line
	9675 8675 9675 9500
Wire Wire Line
	9675 9500 9825 9500
Wire Wire Line
	9625 8775 9625 9600
Wire Wire Line
	9625 9600 9825 9600
Wire Wire Line
	13100 9000 11125 9000
Wire Wire Line
	13100 7675 13100 7800
Connection ~ 13100 8700
Connection ~ 13100 8100
Connection ~ 13100 7800
Wire Wire Line
	13325 9100 11125 9100
Wire Wire Line
	13325 7675 13325 7800
Wire Wire Line
	13550 9200 11125 9200
Wire Wire Line
	13550 7675 13550 7800
Wire Wire Line
	13775 9300 11125 9300
Wire Wire Line
	14000 9400 11125 9400
Wire Wire Line
	14000 7650 14000 7800
Wire Wire Line
	14225 9500 11125 9500
Wire Wire Line
	14225 7650 14225 7800
Wire Wire Line
	14450 9600 11125 9600
Wire Wire Line
	14450 7650 14450 7800
Wire Wire Line
	14675 9700 11125 9700
Wire Wire Line
	14675 7650 14675 7800
Connection ~ 13300 8900
Connection ~ 14200 8600
Connection ~ 13525 8300
Connection ~ 14875 8600
Connection ~ 14875 8900
Connection ~ 14650 8900
Connection ~ 13975 8900
Connection ~ 13750 8900
Connection ~ 13525 8900
Connection ~ 13750 8600
Connection ~ 13975 8600
Connection ~ 13300 8300
Connection ~ 13325 7800
Connection ~ 13550 7800
Connection ~ 13775 7800
Connection ~ 14000 7800
Connection ~ 14225 7800
Connection ~ 14450 7800
Connection ~ 14675 7800
Connection ~ 13550 8400
Connection ~ 13775 8400
Connection ~ 14000 8400
Connection ~ 14675 8400
Connection ~ 13325 8700
Connection ~ 13550 8700
Connection ~ 13775 8700
Connection ~ 14450 8700
Connection ~ 14675 8700
Wire Wire Line
	11800 7700 11800 7675
Wire Wire Line
	11325 7700 11425 7700
Connection ~ 11625 7700
Connection ~ 11525 7700
Connection ~ 11425 7700
Wire Wire Line
	11325 7900 11325 8000
Connection ~ 11325 8000
Wire Wire Line
	11425 7900 11425 8300
Connection ~ 11425 8300
Wire Wire Line
	11525 7900 11525 8600
Connection ~ 11525 8600
Wire Wire Line
	11625 7900 11625 8900
Connection ~ 11625 8900
Wire Wire Line
	13100 7675 13200 7675
Wire Wire Line
	13325 7675 13375 7675
Wire Wire Line
	13550 7675 13575 7675
Wire Wire Line
	14000 7650 13975 7650
Wire Wire Line
	14225 7650 14175 7650
Wire Wire Line
	14450 7650 14375 7650
Wire Wire Line
	14675 7650 14575 7650
Wire Wire Line
	11950 7300 12425 7300
Wire Wire Line
	12425 7300 12425 7225
Wire Wire Line
	12425 7225 12675 7225
Wire Wire Line
	11950 6825 11950 7125
Wire Wire Line
	11950 7125 12675 7125
Wire Wire Line
	11950 6350 12000 6350
Wire Wire Line
	12000 6350 12000 7025
Wire Wire Line
	12000 7025 12675 7025
Wire Wire Line
	11950 5875 12050 5875
Wire Wire Line
	12050 5875 12050 6925
Wire Wire Line
	12050 6925 12675 6925
Wire Wire Line
	11950 5425 12125 5425
Wire Wire Line
	12125 5425 12125 6825
Wire Wire Line
	12125 6825 12675 6825
Wire Wire Line
	11950 4975 12200 4975
Wire Wire Line
	12200 4975 12200 6725
Wire Wire Line
	12200 6725 12675 6725
Wire Wire Line
	11950 4525 12275 4525
Wire Wire Line
	12275 4525 12275 6625
Wire Wire Line
	12275 6625 12675 6625
Wire Wire Line
	11950 4075 12350 4075
Wire Wire Line
	12350 4075 12350 6525
Wire Wire Line
	12350 6525 12675 6525
Wire Wire Line
	2075 3925 1775 3925
Wire Wire Line
	2075 4525 1775 4525
Wire Wire Line
	2075 4625 1775 4625
Wire Wire Line
	2075 4725 1775 4725
Wire Wire Line
	2075 4825 1775 4825
Wire Wire Line
	2075 4925 1775 4925
Wire Wire Line
	2075 5025 1775 5025
Wire Wire Line
	1100 2925 2075 2925
Wire Wire Line
	2575 1775 2575 1850
Wire Wire Line
	2575 750  2575 950 
Wire Wire Line
	2025 2225 2025 2275
Wire Wire Line
	1975 2275 2025 2275
Wire Wire Line
	1975 2275 1975 2350
Wire Wire Line
	2075 2275 2075 2350
Connection ~ 2025 2275
Wire Wire Line
	2075 2550 2075 2725
Wire Wire Line
	1975 2550 1975 2825
Wire Wire Line
	1975 2825 2075 2825
Wire Wire Line
	2075 2825 2075 3025
Connection ~ 2075 2825
Wire Wire Line
	1600 3225 1800 3225
Wire Wire Line
	1600 3625 1725 3625
Wire Wire Line
	1975 3625 2000 3625
Wire Wire Line
	2000 3550 2000 3625
Connection ~ 2000 3625
Wire Wire Line
	2175 3325 2175 3300
Wire Wire Line
	2175 3300 2000 3300
Wire Wire Line
	2000 3300 2000 3350
Wire Bus Line
	8500 2475 6050 2475
Wire Wire Line
	8600 2625 8850 2625
Wire Wire Line
	8600 2725 8850 2725
Wire Wire Line
	8600 2825 8850 2825
Wire Wire Line
	8600 2925 8850 2925
Wire Wire Line
	8600 3025 8850 3025
Wire Wire Line
	8600 3125 8850 3125
Wire Wire Line
	8600 3225 8850 3225
Wire Wire Line
	8600 3325 8850 3325
Wire Wire Line
	8250 1725 8850 1725
Wire Wire Line
	8250 1825 8850 1825
Wire Wire Line
	8250 1925 8850 1925
Wire Wire Line
	8250 2025 8850 2025
Wire Wire Line
	8250 2125 8850 2125
Wire Wire Line
	8250 2225 8850 2225
Wire Wire Line
	8250 2325 8850 2325
Wire Wire Line
	8250 2425 8850 2425
Wire Wire Line
	8850 1325 8625 1325
Wire Wire Line
	8850 1425 8625 1425
Wire Wire Line
	8850 1525 8625 1525
Wire Wire Line
	8850 3525 8600 3525
Wire Wire Line
	8850 3625 8600 3625
Wire Wire Line
	1600 3225 1600 3325
Wire Wire Line
	1600 3525 1600 3625
Wire Wire Line
	1800 3275 1800 3225
Connection ~ 1800 3225
Wire Wire Line
	1800 3475 1800 3500
Wire Wire Line
	1800 3500 1725 3500
Wire Wire Line
	1725 3500 1725 3625
Connection ~ 1725 3625
Wire Wire Line
	1625 7425 1625 7450
Wire Wire Line
	12800 1075 12800 1175
Wire Wire Line
	12800 1275 12925 1275
Wire Wire Line
	12925 1075 12800 1075
Wire Wire Line
	12450 1175 12800 1175
Connection ~ 12800 1175
Connection ~ 12800 1075
Wire Wire Line
	12700 1375 12825 1375
Wire Wire Line
	12825 1375 12825 1475
Wire Wire Line
	12825 1675 12925 1675
Connection ~ 12825 1375
Wire Wire Line
	12425 1575 12825 1575
Connection ~ 12825 1575
Wire Wire Line
	12925 1475 12825 1475
Connection ~ 12825 1475
Wire Wire Line
	12925 1775 12700 1775
Wire Wire Line
	12925 1875 12700 1875
Wire Wire Line
	12925 1975 12700 1975
Wire Wire Line
	12925 2075 12700 2075
Wire Wire Line
	12925 2175 12700 2175
Wire Wire Line
	12925 2275 12700 2275
Wire Wire Line
	12925 2375 12700 2375
Wire Wire Line
	12925 2475 12700 2475
Wire Wire Line
	12925 2575 12700 2575
Wire Wire Line
	12925 2675 12700 2675
Wire Wire Line
	12925 2775 12700 2775
Wire Wire Line
	12925 2875 12700 2875
Wire Wire Line
	12925 2975 12700 2975
Wire Wire Line
	12925 3075 12700 3075
Wire Wire Line
	12925 3175 12700 3175
Wire Wire Line
	12925 3275 12700 3275
Wire Wire Line
	12925 3375 12700 3375
Wire Wire Line
	12925 3475 12700 3475
Wire Wire Line
	12925 3575 12700 3575
Wire Wire Line
	12925 3675 12700 3675
Wire Wire Line
	12925 3775 12700 3775
Wire Wire Line
	12925 3875 12700 3875
Wire Wire Line
	12925 3975 12700 3975
Wire Wire Line
	12925 4075 12700 4075
Wire Wire Line
	12925 4175 12700 4175
Wire Wire Line
	10050 1525 10325 1525
Wire Wire Line
	10050 1725 10325 1725
Wire Wire Line
	10050 1825 10325 1825
Wire Wire Line
	10050 1925 10325 1925
Wire Wire Line
	10050 2025 10325 2025
Wire Wire Line
	10050 2125 10325 2125
Wire Wire Line
	10050 2225 10325 2225
Wire Wire Line
	10050 2325 10325 2325
Wire Wire Line
	10050 2425 10325 2425
Wire Wire Line
	10050 2625 10325 2625
Wire Wire Line
	10050 2725 10325 2725
Wire Wire Line
	10050 2825 10325 2825
Wire Wire Line
	10050 2925 10325 2925
Wire Wire Line
	10050 3025 10325 3025
Wire Wire Line
	10050 3125 10325 3125
Wire Wire Line
	10050 3225 10325 3225
Wire Wire Line
	10050 3325 10325 3325
Wire Wire Line
	2050 10825 2075 10825
Wire Wire Line
	2050 10825 2050 10875
Connection ~ 3050 10825
Wire Wire Line
	2525 10750 2525 10825
Connection ~ 2525 10825
Wire Wire Line
	2925 10450 3050 10450
Wire Wire Line
	3250 10450 3250 10625
Wire Wire Line
	3050 10625 3050 10450
Connection ~ 3050 10450
Wire Wire Line
	3300 10450 3300 10400
Connection ~ 3250 10450
Wire Wire Line
	2075 10400 2075 10450
Wire Wire Line
	1900 10450 2075 10450
Connection ~ 2075 10450
Wire Wire Line
	2075 10825 2075 10775
Connection ~ 2075 10825
Wire Wire Line
	14325 1775 14325 1825
Wire Wire Line
	13750 1775 14325 1775
Wire Wire Line
	13550 2025 13900 2025
Wire Wire Line
	13750 1925 13900 1925
Wire Wire Line
	11125 9800 11500 9800
Wire Wire Line
	11125 9900 11500 9900
Wire Wire Line
	13900 2125 13550 2125
Wire Wire Line
	13900 2225 13550 2225
Wire Wire Line
	13900 2325 13550 2325
Wire Wire Line
	13900 2525 13550 2525
Wire Wire Line
	13900 2725 13550 2725
Wire Wire Line
	13900 2825 13550 2825
Wire Wire Line
	13900 2925 13550 2925
Wire Wire Line
	13900 3025 13550 3025
Wire Wire Line
	13900 3125 13550 3125
Wire Wire Line
	13900 3225 13550 3225
Wire Wire Line
	13900 3325 13550 3325
Wire Wire Line
	13900 3425 13550 3425
Wire Wire Line
	13900 2425 13550 2425
Wire Wire Line
	13900 2625 13550 2625
Wire Wire Line
	5750 5050 6275 5050
Wire Wire Line
	6275 5050 6275 6425
Wire Wire Line
	6475 9050 7600 9050
Wire Wire Line
	7600 9050 7600 8225
Wire Wire Line
	7600 8225 9475 8225
Wire Wire Line
	6275 9175 5750 9175
Wire Wire Line
	5750 7800 6275 7800
Wire Wire Line
	5750 6425 6275 6425
Connection ~ 6275 6425
Wire Wire Line
	6575 7900 6475 7900
Wire Wire Line
	6475 7900 6475 8425
Wire Wire Line
	6575 7700 6550 7700
Wire Wire Line
	6550 7700 6550 7550
Wire Wire Line
	6550 7550 6175 7550
Connection ~ 6175 7550
Wire Wire Line
	7775 7800 7850 7800
Wire Wire Line
	7850 7800 7850 8100
Wire Wire Line
	7850 8100 7175 8100
Wire Wire Line
	7175 8100 7175 8425
Wire Wire Line
	6975 8425 6475 8425
Connection ~ 6475 8425
Wire Wire Line
	7075 8425 7075 8175
Wire Wire Line
	7075 8175 6275 8175
Connection ~ 6275 8175
Wire Wire Line
	7950 9375 7950 9750
Wire Wire Line
	7950 9750 7025 9750
Connection ~ 7950 9375
Connection ~ 6475 9475
Connection ~ 6475 9050
Wire Wire Line
	6200 1725 6200 2325
Wire Wire Line
	6200 1725 6400 1725
Wire Wire Line
	6575 1175 6150 1175
Wire Wire Line
	7475 1175 7725 1175
Wire Wire Line
	1625 7650 1625 8400
Connection ~ 13325 8100
Wire Wire Line
	7650 5600 6175 5600
Connection ~ 6175 5600
Wire Wire Line
	12450 1075 12450 1175
Connection ~ 6200 2325
Wire Wire Line
	13775 7600 13775 7800
Wire Wire Line
	13375 7675 13375 7600
Wire Wire Line
	13575 7675 13575 7600
Wire Wire Line
	13975 7650 13975 7600
Wire Wire Line
	14175 7650 14175 7600
Wire Wire Line
	14375 7650 14375 7600
Wire Wire Line
	14575 7650 14575 7600
Wire Wire Line
	2075 4425 1625 4425
Wire Wire Line
	1625 4975 1625 5025
Wire Wire Line
	1000 10825 1900 10825
Wire Wire Line
	9925 7600 9925 8000
Wire Wire Line
	10225 7300 10225 8900
Wire Wire Line
	10025 7500 10025 8300
Wire Wire Line
	10125 7400 10125 8600
Wire Wire Line
	13200 7675 13200 7600
Wire Wire Line
	2950 1850 2575 1850
Connection ~ 2575 1850
Wire Wire Line
	2400 1250 2575 1250
Wire Wire Line
	2575 1250 2575 1475
Connection ~ 2575 1250
Wire Wire Line
	2400 1600 2350 1600
Wire Wire Line
	2400 1250 2400 1400
Wire Wire Line
	2350 1400 2400 1400
Connection ~ 2400 1400
Wire Wire Line
	1100 2925 1100 1500
Wire Wire Line
	1100 1500 1150 1500
Connection ~ 2950 1250
Wire Wire Line
	13750 1925 13750 1775
Wire Wire Line
	14775 1225 14675 1225
Wire Wire Line
	14675 1225 14675 1150
Wire Wire Line
	14775 1325 14550 1325
Wire Wire Line
	14775 1425 14550 1425
Wire Wire Line
	14775 1525 14550 1525
Wire Wire Line
	14775 1625 14550 1625
Wire Wire Line
	14775 1725 14550 1725
Wire Wire Line
	14775 1825 14550 1825
Wire Wire Line
	14775 1925 14550 1925
Wire Wire Line
	14775 2025 14550 2025
Wire Wire Line
	14775 2125 14550 2125
Wire Wire Line
	14775 2225 14550 2225
Wire Wire Line
	14775 2325 14550 2325
Wire Wire Line
	14775 2425 14550 2425
Wire Wire Line
	14775 2925 14550 2925
Wire Wire Line
	14775 3025 14550 3025
Wire Wire Line
	14775 3125 14550 3125
Wire Wire Line
	14775 3225 14550 3225
Wire Wire Line
	14775 3325 14550 3325
Wire Wire Line
	14775 3425 14550 3425
Wire Wire Line
	14775 3525 14550 3525
Wire Wire Line
	14775 3625 14550 3625
Wire Wire Line
	14775 3925 14550 3925
Wire Wire Line
	14775 4225 14550 4225
Wire Wire Line
	1800 4025 2075 4025
Wire Wire Line
	1600 4025 1450 4025
Wire Wire Line
	1450 4025 1450 4050
Wire Wire Line
	14375 4325 14775 4325
Wire Wire Line
	1050 10500 1000 10500
Wire Wire Line
	1000 10500 1000 10300
Wire Wire Line
	1000 10300 1900 10300
Wire Wire Line
	1050 10600 1000 10600
Wire Wire Line
	1000 10600 1000 10825
Wire Wire Line
	14775 4025 14550 4025
Wire Wire Line
	14550 3825 14775 3825
Wire Wire Line
	1900 10300 1900 10450
$Comp
L mk14-rescue:74LS20 U20
U 2 1 5D041DF8
P 7000 1725
F 0 "U20" H 7000 1825 50  0000 C CNN
F 1 "74LS20" H 7000 1625 50  0000 C CNN
F 2 "Housings_DIP:DIP-14_W7.62mm" H 7000 1725 50  0001 C CNN
F 3 "" H 7000 1725 50  0000 C CNN
	2    7000 1725
	-1   0    0    1   
$EndComp
$Comp
L mk14-rescue:74LS20 U20
U 1 1 5D04268D
P 2350 9025
F 0 "U20" H 2350 9125 50  0000 C CNN
F 1 "74LS20" H 2350 8925 50  0000 C CNN
F 2 "Housings_DIP:DIP-14_W7.62mm" H 2350 9025 50  0001 C CNN
F 3 "" H 2350 9025 50  0000 C CNN
	1    2350 9025
	1    0    0    -1  
$EndComp
Wire Wire Line
	1625 9175 1750 9175
Wire Wire Line
	1750 8400 1625 8400
Connection ~ 1625 8400
Wire Wire Line
	1750 8600 1625 8600
Connection ~ 1625 8600
Wire Wire Line
	1750 8875 1625 8875
Connection ~ 1625 8875
Wire Wire Line
	1750 8975 1625 8975
Connection ~ 1625 8975
Wire Wire Line
	1750 9075 1625 9075
Connection ~ 1625 9075
Wire Wire Line
	7625 2225 7725 2225
Wire Wire Line
	7725 2225 7725 1875
Wire Wire Line
	7725 1875 7600 1875
Wire Wire Line
	6725 2225 6425 2225
Text Label 6425 2225 0    60   ~ 0
~RDS
Wire Wire Line
	7600 1575 7725 1575
Wire Wire Line
	7725 1575 7725 1175
Wire Wire Line
	7600 1675 7850 1675
Wire Wire Line
	7600 1775 7850 1775
Text Label 7850 1675 2    60   ~ 0
~A10
Text Label 7850 1775 2    60   ~ 0
~A9
NoConn ~ 2950 8500
NoConn ~ 2950 9025
Text Label 6200 2175 1    60   ~ 0
~PROM
$Comp
L mk14-rescue:C_Small C5
U 1 1 5D063A54
P 3625 10725
F 0 "C5" H 3635 10795 50  0000 L CNN
F 1 "100n" H 3635 10645 50  0000 L CNN
F 2 "Capacitors_ThroughHole:C_Disc_D6_P5" H 3625 10725 50  0001 C CNN
F 3 "" H 3625 10725 50  0000 C CNN
	1    3625 10725
	1    0    0    -1  
$EndComp
$Comp
L mk14-rescue:C_Small C7
U 1 1 5D063C09
P 3850 10725
F 0 "C7" H 3860 10795 50  0000 L CNN
F 1 "100n" H 3860 10645 50  0000 L CNN
F 2 "Capacitors_ThroughHole:C_Disc_D6_P5" H 3850 10725 50  0001 C CNN
F 3 "" H 3850 10725 50  0000 C CNN
	1    3850 10725
	1    0    0    -1  
$EndComp
$Comp
L mk14-rescue:C_Small C8
U 1 1 5D063CE5
P 4100 10725
F 0 "C8" H 4110 10795 50  0000 L CNN
F 1 "100n" H 4110 10645 50  0000 L CNN
F 2 "Capacitors_ThroughHole:C_Disc_D6_P5" H 4100 10725 50  0001 C CNN
F 3 "" H 4100 10725 50  0000 C CNN
	1    4100 10725
	1    0    0    -1  
$EndComp
$Comp
L mk14-rescue:C_Small C9
U 1 1 5D063DC2
P 4350 10725
F 0 "C9" H 4360 10795 50  0000 L CNN
F 1 "100n" H 4360 10645 50  0000 L CNN
F 2 "Capacitors_ThroughHole:C_Disc_D6_P5" H 4350 10725 50  0001 C CNN
F 3 "" H 4350 10725 50  0000 C CNN
	1    4350 10725
	1    0    0    -1  
$EndComp
$Comp
L mk14-rescue:C_Small C10
U 1 1 5D063EAE
P 4600 10725
F 0 "C10" H 4610 10795 50  0000 L CNN
F 1 "100n" H 4610 10645 50  0000 L CNN
F 2 "Capacitors_ThroughHole:C_Disc_D6_P5" H 4600 10725 50  0001 C CNN
F 3 "" H 4600 10725 50  0000 C CNN
	1    4600 10725
	1    0    0    -1  
$EndComp
$Comp
L mk14-rescue:C_Small C11
U 1 1 5D063FAB
P 4850 10725
F 0 "C11" H 4860 10795 50  0000 L CNN
F 1 "100n" H 4860 10645 50  0000 L CNN
F 2 "Capacitors_ThroughHole:C_Disc_D6_P5" H 4850 10725 50  0001 C CNN
F 3 "" H 4850 10725 50  0000 C CNN
	1    4850 10725
	1    0    0    -1  
$EndComp
$Comp
L mk14-rescue:C_Small C12
U 1 1 5D0640D7
P 5100 10725
F 0 "C12" H 5110 10795 50  0000 L CNN
F 1 "100n" H 5110 10645 50  0000 L CNN
F 2 "Capacitors_ThroughHole:C_Disc_D6_P5" H 5100 10725 50  0001 C CNN
F 3 "" H 5100 10725 50  0000 C CNN
	1    5100 10725
	1    0    0    -1  
$EndComp
$Comp
L mk14-rescue:C_Small C13
U 1 1 5D0641C0
P 5325 10725
F 0 "C13" H 5335 10795 50  0000 L CNN
F 1 "100n" H 5335 10645 50  0000 L CNN
F 2 "Capacitors_ThroughHole:C_Disc_D6_P5" H 5325 10725 50  0001 C CNN
F 3 "" H 5325 10725 50  0000 C CNN
	1    5325 10725
	1    0    0    -1  
$EndComp
Connection ~ 3250 10825
Connection ~ 4600 10825
Connection ~ 4350 10825
Connection ~ 4100 10825
Connection ~ 3850 10825
Connection ~ 3625 10825
Connection ~ 4850 10825
Connection ~ 5100 10825
Wire Wire Line
	3625 10450 3625 10625
Connection ~ 3300 10450
Wire Wire Line
	3850 10450 3850 10625
Connection ~ 3625 10450
Wire Wire Line
	4100 10450 4100 10625
Connection ~ 3850 10450
Wire Wire Line
	4350 10450 4350 10625
Connection ~ 4100 10450
Wire Wire Line
	4600 10450 4600 10625
Connection ~ 4350 10450
Wire Wire Line
	4850 10450 4850 10625
Connection ~ 4600 10450
Wire Wire Line
	5100 10450 5100 10625
Connection ~ 4850 10450
Wire Wire Line
	5325 10450 5325 10625
Connection ~ 5100 10450
$Comp
L mk14-rescue:C_Small C14
U 1 1 5D06C0EC
P 5550 10725
F 0 "C14" H 5560 10795 50  0000 L CNN
F 1 "100n" H 5560 10645 50  0000 L CNN
F 2 "Capacitors_ThroughHole:C_Disc_D6_P5" H 5550 10725 50  0001 C CNN
F 3 "" H 5550 10725 50  0000 C CNN
	1    5550 10725
	1    0    0    -1  
$EndComp
$Comp
L mk14-rescue:C_Small C15
U 1 1 5D06C1D9
P 5775 10725
F 0 "C15" H 5785 10795 50  0000 L CNN
F 1 "100n" H 5785 10645 50  0000 L CNN
F 2 "Capacitors_ThroughHole:C_Disc_D6_P5" H 5775 10725 50  0001 C CNN
F 3 "" H 5775 10725 50  0000 C CNN
	1    5775 10725
	1    0    0    -1  
$EndComp
$Comp
L mk14-rescue:C_Small C16
U 1 1 5D06C2C9
P 6000 10725
F 0 "C16" H 6010 10795 50  0000 L CNN
F 1 "100n" H 6010 10645 50  0000 L CNN
F 2 "Capacitors_ThroughHole:C_Disc_D6_P5" H 6000 10725 50  0001 C CNN
F 3 "" H 6000 10725 50  0000 C CNN
	1    6000 10725
	1    0    0    -1  
$EndComp
Connection ~ 5325 10825
Connection ~ 5550 10825
Wire Wire Line
	5775 10825 6000 10825
Connection ~ 5775 10825
Wire Wire Line
	5550 10450 5550 10625
Connection ~ 5325 10450
Wire Wire Line
	5775 10450 5775 10625
Connection ~ 5550 10450
Wire Wire Line
	6000 10450 6000 10625
Connection ~ 5775 10450
$Comp
L mk14-rescue:C_Small C17
U 1 1 5D06E72A
P 1900 10725
F 0 "C17" H 1750 10800 50  0000 L CNN
F 1 "100n" H 1700 10675 50  0000 L CNN
F 2 "Capacitors_ThroughHole:C_Disc_D6_P5" H 1900 10725 50  0001 C CNN
F 3 "" H 1900 10725 50  0000 C CNN
	1    1900 10725
	1    0    0    -1  
$EndComp
Connection ~ 1900 10825
Connection ~ 1900 10450
Wire Wire Line
	3800 4025 4250 4025
Wire Wire Line
	3900 4125 4250 4125
Wire Wire Line
	4000 4225 4250 4225
Wire Wire Line
	4100 4325 4250 4325
Wire Wire Line
	4100 3775 4200 3775
Wire Wire Line
	4000 3775 4100 3775
Wire Wire Line
	3900 3775 4000 3775
Wire Wire Line
	4175 4925 3375 4925
Wire Wire Line
	4175 6075 4175 7450
Wire Wire Line
	4175 7450 4175 8825
Wire Wire Line
	4175 8825 4175 9350
Wire Wire Line
	6375 7700 6375 9075
Wire Wire Line
	6375 6325 6375 7700
Wire Wire Line
	6375 4950 6375 6325
Wire Wire Line
	6575 3850 6150 3850
Wire Wire Line
	7950 3500 7950 4550
Wire Wire Line
	6175 9275 6175 9350
Wire Wire Line
	7850 9025 7850 9575
Wire Wire Line
	7850 9575 7850 9800
Wire Wire Line
	8000 9175 8025 9175
Wire Wire Line
	7950 5825 7950 8325
Wire Wire Line
	7950 8325 7950 9175
Wire Wire Line
	9675 7800 9675 7875
Wire Wire Line
	8075 6250 8075 6900
Wire Wire Line
	10375 6700 10375 7400
Wire Wire Line
	10325 6450 10450 6450
Wire Wire Line
	10275 6200 10525 6200
Wire Wire Line
	10225 5950 10575 5950
Wire Wire Line
	10400 5200 10400 5525
Wire Wire Line
	10350 4950 10450 4950
Wire Wire Line
	10300 4700 10450 4700
Wire Wire Line
	10250 4450 10450 4450
Wire Wire Line
	10625 3975 10625 4425
Wire Wire Line
	10625 6725 10625 7200
Wire Wire Line
	10625 6250 10625 6725
Wire Wire Line
	10625 5775 10625 6250
Wire Wire Line
	10625 5325 10625 5775
Wire Wire Line
	10625 4875 10625 5325
Wire Wire Line
	10625 4425 10625 4875
Wire Wire Line
	14875 8000 15175 8000
Wire Wire Line
	14650 8000 14875 8000
Wire Wire Line
	14425 8000 14650 8000
Wire Wire Line
	14200 8000 14425 8000
Wire Wire Line
	13975 8000 14200 8000
Wire Wire Line
	13750 8000 13975 8000
Wire Wire Line
	13525 8000 13750 8000
Wire Wire Line
	13300 8000 13525 8000
Wire Wire Line
	13100 8700 13100 9000
Wire Wire Line
	13100 8100 13100 8700
Wire Wire Line
	13100 7800 13100 8100
Wire Wire Line
	13300 8900 13525 8900
Wire Wire Line
	14200 8600 14875 8600
Wire Wire Line
	13525 8300 15175 8300
Wire Wire Line
	14875 8600 15175 8600
Wire Wire Line
	14875 8900 15175 8900
Wire Wire Line
	14650 8900 14875 8900
Wire Wire Line
	13975 8900 14650 8900
Wire Wire Line
	13750 8900 13975 8900
Wire Wire Line
	13525 8900 13750 8900
Wire Wire Line
	13750 8600 13975 8600
Wire Wire Line
	13975 8600 14200 8600
Wire Wire Line
	13300 8300 13525 8300
Wire Wire Line
	13325 7800 13325 8100
Wire Wire Line
	13550 7800 13550 8400
Wire Wire Line
	13775 7800 13775 8400
Wire Wire Line
	14000 7800 14000 8400
Wire Wire Line
	14225 7800 14225 9500
Wire Wire Line
	14450 7800 14450 8700
Wire Wire Line
	14675 7800 14675 8400
Wire Wire Line
	13550 8400 13550 8700
Wire Wire Line
	13775 8400 13775 8700
Wire Wire Line
	14000 8400 14000 9400
Wire Wire Line
	14675 8400 14675 8700
Wire Wire Line
	13325 8700 13325 9100
Wire Wire Line
	13550 8700 13550 9200
Wire Wire Line
	13775 8700 13775 9300
Wire Wire Line
	14450 8700 14450 9600
Wire Wire Line
	14675 8700 14675 9700
Wire Wire Line
	11625 7700 11800 7700
Wire Wire Line
	11525 7700 11625 7700
Wire Wire Line
	11425 7700 11525 7700
Wire Wire Line
	11325 8000 13300 8000
Wire Wire Line
	11425 8300 13300 8300
Wire Wire Line
	11525 8600 13750 8600
Wire Wire Line
	11625 8900 13300 8900
Wire Wire Line
	2025 2275 2075 2275
Wire Wire Line
	2000 3625 2075 3625
Wire Wire Line
	1800 3225 2075 3225
Wire Wire Line
	1725 3625 1775 3625
Wire Wire Line
	12800 1175 12800 1275
Wire Wire Line
	12800 1175 12925 1175
Wire Wire Line
	12825 1375 12925 1375
Wire Wire Line
	12825 1575 12825 1675
Wire Wire Line
	12825 1575 12925 1575
Wire Wire Line
	12825 1475 12825 1575
Wire Wire Line
	3050 10825 3250 10825
Wire Wire Line
	2525 10825 3050 10825
Wire Wire Line
	3050 10450 3250 10450
Wire Wire Line
	3250 10450 3300 10450
Wire Wire Line
	2075 10450 2075 10475
Wire Wire Line
	2075 10450 2125 10450
Wire Wire Line
	2075 10825 2525 10825
Wire Wire Line
	6175 7550 6175 9275
Wire Wire Line
	6475 8425 6475 9050
Wire Wire Line
	6275 8175 6275 9175
Wire Wire Line
	7950 9375 8025 9375
Wire Wire Line
	6475 9475 6700 9475
Wire Wire Line
	6475 9050 6475 9475
Wire Wire Line
	13325 8100 13325 8700
Wire Wire Line
	6175 5600 6175 6225
Wire Wire Line
	6200 2325 6200 3675
Wire Wire Line
	2575 1850 2575 1950
Wire Wire Line
	2575 1250 2950 1250
Wire Wire Line
	2400 1400 2400 1600
Wire Wire Line
	2950 1250 3275 1250
Wire Wire Line
	1625 8400 1625 8600
Wire Wire Line
	1625 8600 1625 8875
Wire Wire Line
	1625 8875 1625 8975
Wire Wire Line
	1625 8975 1625 9075
Wire Wire Line
	1625 9075 1625 9175
Wire Wire Line
	3250 10825 3625 10825
Wire Wire Line
	4600 10825 4850 10825
Wire Wire Line
	4350 10825 4600 10825
Wire Wire Line
	4100 10825 4350 10825
Wire Wire Line
	3850 10825 4100 10825
Wire Wire Line
	3625 10825 3850 10825
Wire Wire Line
	4850 10825 5100 10825
Wire Wire Line
	5100 10825 5325 10825
Wire Wire Line
	3300 10450 3625 10450
Wire Wire Line
	3625 10450 3850 10450
Wire Wire Line
	3850 10450 4100 10450
Wire Wire Line
	4100 10450 4350 10450
Wire Wire Line
	4350 10450 4600 10450
Wire Wire Line
	4600 10450 4850 10450
Wire Wire Line
	4850 10450 5100 10450
Wire Wire Line
	5100 10450 5325 10450
Wire Wire Line
	5325 10825 5550 10825
Wire Wire Line
	5550 10825 5775 10825
Wire Wire Line
	5775 10825 5800 10825
Wire Wire Line
	5325 10450 5550 10450
Wire Wire Line
	5550 10450 5775 10450
Wire Wire Line
	5775 10450 6000 10450
Wire Wire Line
	1900 10825 2075 10825
Wire Wire Line
	1900 10450 1900 10625
Wire Wire Line
	6275 6425 6275 8175
Wire Bus Line
	7800 8325 7800 8675
Wire Bus Line
	7525 7025 7525 7500
Wire Bus Line
	6050 8325 6050 8875
Wire Bus Line
	8500 2475 8500 3525
Wire Bus Line
	3675 875  3675 3725
Wire Bus Line
	4350 700  4350 8525
Wire Bus Line
	8150 700  8150 7025
Wire Bus Line
	6050 875  6050 8325
$EndSCHEMATC
